This is pdfTeX, Version 3.14159265-2.6-1.40.19 (TeX Live 2018) (preloaded format=pdflatex 2018.4.16)  7 MAR 2019 02:16
entering extended mode
 restricted \write18 enabled.
 %&-line parsing enabled.
**exemplo.tex
(./exemplo.tex
LaTeX2e <2018-04-01> patch level 2
Babel <3.18> and hyphenation patterns for 84 language(s) loaded.
(./ppgccufmg.cls
Document Class: ppgccufmg 2012/09/17 v1.51 Classe para dissertacoes, teses e pr
opostas de tese no formato PPGCC/ICEx/UFMG
(/usr/local/texlive/2018/texmf-dist/tex/latex/graphics/keyval.sty
Package: keyval 2014/10/28 v1.15 key=value parser (DPC)
\KV@toks@=\toks14
)
(/usr/local/texlive/2018/texmf-dist/tex/latex/setspace/setspace.sty
Package: setspace 2011/12/19 v6.7a set line spacing
)
(/usr/local/texlive/2018/texmf-dist/tex/latex/textpos/textpos.sty
Package: textpos 2016/06/07 v1.8

Package: textpos 2016/06/07 1.8, absolute positioning of text on the page
\TP@textbox=\box26
\TPHorizModule=\dimen102
\TPVertModule=\dimen103
\TP@margin=\dimen104
\TP@absmargin=\dimen105
Grid set 16 x 16 = 0.0pt x 0.0pt
\TPboxrulesize=\dimen106
\TP@tbargs=\toks15
\TP@prevdepth=\dimen107
) (/usr/local/texlive/2018/texmf-dist/tex/latex/etextools/etextools.sty
Package: etextools 2010/12/07 v3.1415926 e-TeX more useful tools for LaTeX pack
age writers

(/usr/local/texlive/2018/texmf-dist/tex/latex/etex-pkg/etex.sty
Package: etex 2016/08/01 v2.7 eTeX basic definition package (PEB,DPC)
\et@xins=\count80
)
(/usr/local/texlive/2018/texmf-dist/tex/latex/etoolbox/etoolbox.sty
Package: etoolbox 2018/02/11 v2.5e e-TeX tools for LaTeX (JAW)
\etb@tempcnta=\count81
)
(/usr/local/texlive/2018/texmf-dist/tex/latex/oberdiek/letltxmacro.sty
Package: letltxmacro 2016/05/16 v1.5 Let assignment for LaTeX macros (HO)
)
\ettl@fter=\count82
\ettl@for@nested=\count277
)
\ppgcc@approvalwidth=\skip41
\ppgcc@approvalvertadjust=\skip42

(/usr/local/texlive/2018/texmf-dist/tex/latex/memoir/memoir.cls
Document Class: memoir 2018/04/04 v3.7g configurable book, report, article docu
ment class
\onelineskip=\skip43
\lxvchars=\skip44
\xlvchars=\skip45
\@memcnta=\count83
\c@@memmarkcntra=\count84
(/usr/local/texlive/2018/texmf-dist/tex/generic/oberdiek/ifpdf.sty
Package: ifpdf 2017/03/15 v3.2 Provides the ifpdf switch
)
(/usr/local/texlive/2018/texmf-dist/tex/latex/ifetex/ifetex.sty
Package: ifetex 2018/03/31 v1.2a ifetex

(/usr/local/texlive/2018/texmf-dist/tex/plain/ifetex/ifetex.tex))
(/usr/local/texlive/2018/texmf-dist/tex/generic/ifxetex/ifxetex.sty
Package: ifxetex 2010/09/12 v0.6 Provides ifxetex conditional
)
(/usr/local/texlive/2018/texmf-dist/tex/generic/oberdiek/ifluatex.sty
Package: ifluatex 2016/05/16 v1.4 Provides the ifluatex switch (HO)
Package ifluatex Info: LuaTeX not detected.
)
\stockheight=\skip46
\stockwidth=\skip47
\trimtop=\skip48
\trimedge=\skip49

(/usr/local/texlive/2018/texmf-dist/tex/latex/memoir/mem12.clo
File: mem12.clo 2010/10/19 v0.4b memoir class 12pt size option
)
\binding=\skip50
\spinemargin=\skip51
\foremargin=\skip52
\uppermargin=\skip53
\lowermargin=\skip54
\headdrop=\skip55
\normalrulethickness=\skip56
\mem@maxheadheight=\skip57
\mem@maxfootheight=\skip58
\headwidth=\skip59
\c@storedpagenumber=\count85
\memPD=\dimen108
\m@mabparskip=\skip60
\thanksmarkwidth=\skip61
\thanksmarksep=\skip62
\droptitle=\skip63
\c@book=\count86
\c@part=\count87
\c@chapter=\count88
\c@section=\count89
\c@subsection=\count90
\c@subsubsection=\count91
\c@paragraph=\count92
\c@subparagraph=\count93
\beforechapskip=\skip64
\midchapskip=\skip65
\afterchapskip=\skip66
\chapindent=\skip67
\bottomsectionskip=\skip68
\secindent=\skip69
\beforesecskip=\skip70
\aftersecskip=\skip71
\subsecindent=\skip72
\beforesubsecskip=\skip73
\aftersubsecskip=\skip74
\subsubsecindent=\skip75
\beforesubsubsecskip=\skip76
\aftersubsubsecskip=\skip77
\paraindent=\skip78
\beforeparaskip=\skip79
\afterparaskip=\skip80
\subparaindent=\skip81
\beforesubparaskip=\skip82
\aftersubparaskip=\skip83
\pfbreakskip=\skip84
\c@@ppsavesec=\count94
\c@@ppsaveapp=\count95
\ragrparindent=\dimen109
\everylistparindent=\dimen110
\parsepi=\skip85
\topsepi=\skip86
\itemsepi=\skip87
\parsepii=\skip88
\topsepii=\skip89
\topsepiii=\skip90
\itemsepii=\skip91
\itemsepiii=\skip92
\partopsepii=\skip93
\partopsepiii=\skip94
\m@msavetopsep=\skip95
\m@msavepartopsep=\skip96
\@enLab=\toks16
\abstitleskip=\skip97
\absleftindent=\skip98
\abs@leftindent=\dimen111
\absrightindent=\skip99
\absparindent=\skip100
\absparsep=\skip101
\c@vslineno=\count96
\c@poemline=\count97
\c@modulo@vs=\count98
\c@memfvsline=\count99
\vleftskip=\skip102
\vrightskip=\skip103
\stanzaskip=\skip104
\versewidth=\skip105
\vgap=\skip106
\vindent=\skip107
\vleftmargin=\dimen112
\c@verse=\count100
\c@chrsinstr=\count101
\beforepoemtitleskip=\skip108
\afterpoemtitleskip=\skip109
\c@poem=\count102
\beforePoemTitleskip=\skip110
\midPoemTitleskip=\skip111
\afterPoemTitleskip=\skip112
\col@sep=\dimen113
\extrarowheight=\dimen114
\NC@list=\toks17
\extratabsurround=\skip113
\backup@length=\skip114
\TX@col@width=\dimen115
\TX@old@table=\dimen116
\TX@old@col=\dimen117
\TX@target=\dimen118
\TX@delta=\dimen119
\TX@cols=\count103
\TX@ftn=\toks18
\heavyrulewidth=\dimen120
\lightrulewidth=\dimen121
\cmidrulewidth=\dimen122
\belowrulesep=\dimen123
\belowbottomsep=\dimen124
\aboverulesep=\dimen125
\abovetopsep=\dimen126
\cmidrulesep=\dimen127
\cmidrulekern=\dimen128
\defaultaddspace=\dimen129
\@cmidla=\count104
\@cmidlb=\count105
\@aboverulesep=\dimen130
\@belowrulesep=\dimen131
\@thisruleclass=\count106
\@lastruleclass=\count107
\@thisrulewidth=\dimen132
\ctableftskip=\skip115
\ctabrightskip=\skip116
\abovecolumnspenalty=\count108
\@linestogo=\count109
\@cellstogo=\count110
\@cellsincolumn=\count111
\crtok=\toks19
\@mincolumnwidth=\dimen133
\c@newflo@tctr=\count112
\mem@margin@floatbox=\box27
\@contcwidth=\skip117
\@contindw=\skip118
\abovecaptionskip=\skip119
\belowcaptionskip=\skip120
\subfloattopskip=\skip121
\subfloatcapskip=\skip122
\subfloatcaptopadj=\skip123
\subfloatbottomskip=\skip124
\subfloatlabelskip=\skip125
\subfloatcapmargin=\dimen134
\c@@contsubnum=\count113
\m@mscap@capbox=\box28
\m@mscap@fbox=\box29
\sidecapsep=\dimen135
\sidecapwidth=\dimen136
\m@m@tempdima=\dimen137
\m@mscapraise=\dimen138
\sidecapraise=\dimen139
\m@mscapmainwidth=\dimen140
\m@mscaplkern=\dimen141
\beforeepigraphskip=\skip126
\afterepigraphskip=\skip127
\epigraphwidth=\skip128
\epigraphrule=\skip129
LaTeX Info: Redefining \em on input line 7578.
LaTeX Info: Redefining \emph on input line 7586.
\tocentryskip=\skip130
\tocbaseline=\skip131
\cftparskip=\skip132
\cftbeforebookskip=\skip133
\cftbookindent=\dimen142
\cftbooknumwidth=\dimen143
\cftbeforepartskip=\skip134
\cftpartindent=\skip135
\cftpartnumwidth=\skip136
\cftbeforechapterskip=\skip137
\cftchapterindent=\skip138
\cftchapternumwidth=\skip139
\cftbeforesectionskip=\skip140
\cftsectionindent=\skip141
\cftsectionnumwidth=\skip142
\cftbeforesubsectionskip=\skip143
\cftsubsectionindent=\skip144
\cftsubsectionnumwidth=\skip145
\cftbeforesubsubsectionskip=\skip146
\cftsubsubsectionindent=\skip147
\cftsubsubsectionnumwidth=\skip148
\cftbeforeparagraphskip=\skip149
\cftparagraphindent=\skip150
\cftparagraphnumwidth=\skip151
\cftbeforesubparagraphskip=\skip152
\cftsubparagraphindent=\skip153
\cftsubparagraphnumwidth=\skip154
\prechapterprecisshift=\dimen144
\c@maxsecnumdepth=\count114
\bibindent=\dimen145
\bibitemsep=\skip155
\indexcolsep=\skip156
\indexrule=\skip157
\indexmarkstyle=\toks20
\@indexbox=\insert199
\glossarycolsep=\dimen146
\glossaryrule=\dimen147
\sideparvshift=\skip158
\sideins=\insert198
\sidebartopsep=\skip159
\sidebarhsep=\skip160
\sidebarvsep=\skip161
\sidebarwidth=\skip162
\footmarkwidth=\skip163
\footmarksep=\skip164
\footparindent=\skip165
\footinsdim=\skip166
\footinsv@r=\insert197
\@mpfootinsv@r=\insert196
\m@m@k=\count115
\m@m@h=\dimen148
\m@mipn@skip=\skip167
\sidefootins=\insert195
\sidefootadjust=\skip168
\sidefootheight=\skip169
\sidefoothsep=\skip170
\sidefootvsep=\skip171
\sidefootwidth=\skip172
\m@mdownsf=\skip173
\c@sidefootnote=\count116
\sidefootmarkwidth=\skip174
\sidefootmarksep=\skip175
\sidefootparindent=\skip176
\c@pagenote=\count117
\c@pagenoteshadow=\count118
\mem@pn@lastkern=\skip177
\every@verbatim=\toks21
\afterevery@verbatim=\toks22
\verbatim@line=\toks23
\tab@position=\count119
\verbatim@in@stream=\read1
\verbatimindent=\skip178
\verbatim@out=\write3
\bvboxsep=\skip179
\c@memfbvline=\count120
\c@bvlinectr=\count121
\bvnumlength=\skip180
\fb@frw=\dimen149
\fb@frh=\dimen150
\FrameRule=\dimen151
\FrameSep=\dimen152
\c@cp@cntr=\count122
LaTeX Info: Redefining \: on input line 12100.
LaTeX Info: Redefining \! on input line 12102.
\c@ism@mctr=\count123
\c@xsm@mctr=\count124
\c@csm@mctr=\count125
\c@ksm@mctr=\count126
\c@xksm@mctr=\count127
\c@cksm@mctr=\count128
\c@msm@mctr=\count129
\c@xmsm@mctr=\count130
\c@cmsm@mctr=\count131
\c@bsm@mctr=\count132
\c@workm@mctr=\count133
\c@sheetsequence=\count134
\c@lastsheet=\count135
\c@lastpage=\count136
\c@figure=\count137
\c@lofdepth=\count138
\cftbeforefigureskip=\skip181
\cftfigureindent=\skip182
\cftfigurenumwidth=\skip183
\c@table=\count139
\c@lotdepth=\count140
\cftbeforetableskip=\skip184
\cfttableindent=\skip185
\cfttablenumwidth=\skip186
Package abstract [2008/07/23] emulated by memoir.
Package appendix [2008/07/23] emulated by memoir.
Package array [2016/10/06] emulated by memoir.
Package booktabs [2016/05/16] emulated by memoir.
Package ccaption [2008/07/23] emulated by memoir.
Package changepage [2008/07/23] emulated by memoir.
Package chngcntr [2008/07/23] emulated by memoir.
Package chngpage [2008/07/23] emulated by memoir.
Package crop emulated by memoir.
Package dcolumn [2008/07/23] emulated by memoir.
Package delarray [2014/10/28] emulated by memoir.
Package enumerate [2008/07/23] emulated by memoir.
Package epigraph [2008/07/23] emulated by memoir.
Package ifmtarg [2008/07/23] emulated by memoir.
Package index [2008/07/23] emulated by memoir.
Package makeidx [2008/07/23] emulated by memoir.
Package moreverb [2008/07/23] emulated by memoir.
Package mparhack [2008/07/23] emulated by memoir.
Package needspace [2008/07/23] emulated by memoir.
Package newfile [2008/07/23] emulated by memoir.
Package nextpage [2008/07/23] emulated by memoir.
Package pagenote [2008/07/23] emulated by memoir.
Package parskip [2008/07/23] emulated by memoir.
Package patchcmd [2008/07/23] emulated by memoir.
Package setspace [2008/07/23] emulated by memoir.
Package shortvrb [2008/07/23] emulated by memoir.
Package showidx [2008/07/23] emulated by memoir.
Package tabularx [2016/02/03] emulated by memoir.
Package titleref [2008/07/23] emulated by memoir.
Package titling [2008/07/23] emulated by memoir.
Package tocbibind [2008/07/23] emulated by memoir.
Package tocloft [2008/07/23] emulated by memoir.
Package tocvsec2 [2008/07/23] emulated by memoir.
Package verbatim [2008/07/23] emulated by memoir.
Package verse [2008/07/23] emulated by memoir.
)

******************************************************
Stock height and width: 845.04684pt by 597.50787pt
Top and edge trims: 0pt and 0pt
Page height and width: 845.04684pt by 597.50787pt
Text height and width: 660.10394pt by 441pt
Spine and edge margins: 85.35826pt and 71.13188pt
Upper and lower margins: 99.58464pt and 85.35826pt
Headheight and headsep: 14.5pt and 28.17914pt
Footskip: 28.45274pt
Columnsep and columnseprule: 10pt and 0pt
Marginparsep and marginparwidth: 7pt and 57.13188pt
Sidecapsep and sidecapwidth: 7pt and 92pt
Sidebarhsep and sidebarwidth: 7pt and 92pt
Sidebarvsep and sidebartopsep: 14.5pt and 0pt
Sidebarheight: 590.14995pt
Sidefoothsep and sidefootwidth: 7pt and 92pt
Sidefootvsep and sidefootheight: 14.5pt and 590.14995pt
******************************************************

\c@ppgcc@fc@frontpages=\count141
\ppgcc@l@fc@width=\skip187
\ppgcc@l@fc@seccolwidth=\skip188
\ppgcc@l@fc@firstcolwidth=\skip189
\c@ppgcc@c@abstract=\count142
\c@ppgcc@c@dedication=\count143
\c@ppgcc@c@ack=\count144
\ppgcc@captionwidth=\skip190
) (/usr/local/texlive/2018/texmf-dist/tex/generic/babel/babel.sty
Package: babel 2018/02/14 3.18 The Babel package

(/usr/local/texlive/2018/texmf-dist/tex/generic/babel/switch.def
File: switch.def 2018/02/14 3.18 Babel switching mechanism
)
(/usr/local/texlive/2018/texmf-dist/tex/generic/babel-portuges/portuges.ldf
Language: portuges 2008/03/18 v1.2q Portuguese support from the babel system

(/usr/local/texlive/2018/texmf-dist/tex/generic/babel/babel.def
File: babel.def 2018/02/14 3.18 Babel common definitions
\babel@savecnt=\count145
\U@D=\dimen153

(/usr/local/texlive/2018/texmf-dist/tex/generic/babel/txtbabel.def)
\bbl@dirlevel=\count146
)
\l@brazil = a dialect from \language\l@portuges 
Package babel Info: Making " an active character on input line 145.
))
(/usr/local/texlive/2018/texmf-dist/tex/latex/base/inputenc.sty
Package: inputenc 2018/04/06 v1.3b Input encoding file
\inpenc@prehook=\toks24
\inpenc@posthook=\toks25
)
(/usr/local/texlive/2018/texmf-dist/tex/latex/caption/subcaption.sty
Package: subcaption 2016/05/22 v1.1-161 Sub-captions (AR)


Class memoir Warning: You are using the caption package with the memoir class. 
To prepare we will now reset all captioning macros and configurations to kernel
 defaults, and then let the caption package take over. Please remember to use
 the caption package interfaces in order to
 configure your captions.

(/usr/local/texlive/2018/texmf-dist/tex/latex/caption/caption.sty
Package: caption 2016/02/21 v3.3-144 Customizing captions (AR)

(/usr/local/texlive/2018/texmf-dist/tex/latex/caption/caption3.sty
Package: caption3 2016/05/22 v1.7-166 caption3 kernel (AR)
Package caption3 Info: TeX engine: e-TeX on input line 67.
\captionmargin=\dimen154
\captionmargin@=\dimen155
\captionwidth=\dimen156
\caption@tempdima=\dimen157
\caption@indent=\dimen158
\caption@parindent=\dimen159
\caption@hangindent=\dimen160
)
\c@ContinuedFloat=\count147
)
\c@subfigure=\count148
\c@subtable=\count149
)
(/usr/local/texlive/2018/texmf-dist/tex/latex/base/fontenc.sty
Package: fontenc 2017/04/05 v2.0i Standard LaTeX package

(/usr/local/texlive/2018/texmf-dist/tex/latex/base/t1enc.def
File: t1enc.def 2017/04/05 v2.0i Standard LaTeX file
LaTeX Font Info:    Redeclaring font encoding T1 on input line 48.
))
(/usr/local/texlive/2018/texmf-dist/tex/latex/cm-super/type1ec.sty
Package: type1ec 2002/09/07 v1.1 Type1 EC font definitions (for CM-Super fonts)


(/usr/local/texlive/2018/texmf-dist/tex/latex/base/t1cmr.fd
File: t1cmr.fd 2014/09/29 v2.5h Standard LaTeX font definitions
))
(/usr/local/texlive/2018/texmf-dist/tex/latex/graphics/graphicx.sty
Package: graphicx 2017/06/01 v1.1a Enhanced LaTeX Graphics (DPC,SPQR)

(/usr/local/texlive/2018/texmf-dist/tex/latex/graphics/graphics.sty
Package: graphics 2017/06/25 v1.2c Standard LaTeX Graphics (DPC,SPQR)

(/usr/local/texlive/2018/texmf-dist/tex/latex/graphics/trig.sty
Package: trig 2016/01/03 v1.10 sin cos tan (DPC)
)
(/usr/local/texlive/2018/texmf-dist/tex/latex/graphics-cfg/graphics.cfg
File: graphics.cfg 2016/06/04 v1.11 sample graphics configuration
)
Package graphics Info: Driver file: pdftex.def on input line 99.

(/usr/local/texlive/2018/texmf-dist/tex/latex/graphics-def/pdftex.def
File: pdftex.def 2018/01/08 v1.0l Graphics/color driver for pdftex
))
\Gin@req@height=\dimen161
\Gin@req@width=\dimen162
)
(/usr/local/texlive/2018/texmf-dist/tex/latex/url/url.sty
\Urlmuskip=\muskip10
Package: url 2013/09/16  ver 3.4  Verb mode for urls, etc.
)
(/usr/local/texlive/2018/texmf-dist/tex/latex/graphics/rotating.sty
Package: rotating 2016/08/11 v2.16d rotated objects in LaTeX

(/usr/local/texlive/2018/texmf-dist/tex/latex/base/ifthen.sty
Package: ifthen 2014/09/29 v1.1c Standard LaTeX ifthen package (DPC)
)
\c@r@tfl@t=\count150
\rotFPtop=\skip191
\rotFPbot=\skip192
\rot@float@box=\box30
\rot@mess@toks=\toks26
)
(/usr/local/texlive/2018/texmf-dist/tex/latex/amsmath/amsmath.sty
Package: amsmath 2017/09/02 v2.17a AMS math features
\@mathmargin=\skip193

For additional information on amsmath, use the `?' option.
(/usr/local/texlive/2018/texmf-dist/tex/latex/amsmath/amstext.sty
Package: amstext 2000/06/29 v2.01 AMS text

(/usr/local/texlive/2018/texmf-dist/tex/latex/amsmath/amsgen.sty
File: amsgen.sty 1999/11/30 v2.0 generic functions
\@emptytoks=\toks27
\ex@=\dimen163
))
(/usr/local/texlive/2018/texmf-dist/tex/latex/amsmath/amsbsy.sty
Package: amsbsy 1999/11/29 v1.2d Bold Symbols
\pmbraise@=\dimen164
)
(/usr/local/texlive/2018/texmf-dist/tex/latex/amsmath/amsopn.sty
Package: amsopn 2016/03/08 v2.02 operator names
)
\inf@bad=\count151
LaTeX Info: Redefining \frac on input line 213.
\uproot@=\count152
\leftroot@=\count153
LaTeX Info: Redefining \overline on input line 375.
\classnum@=\count154
\DOTSCASE@=\count155
LaTeX Info: Redefining \ldots on input line 472.
LaTeX Info: Redefining \dots on input line 475.
LaTeX Info: Redefining \cdots on input line 596.
\Mathstrutbox@=\box31
\strutbox@=\box32
\big@size=\dimen165
LaTeX Font Info:    Redeclaring font encoding OML on input line 712.
LaTeX Font Info:    Redeclaring font encoding OMS on input line 713.
\macc@depth=\count156
\c@MaxMatrixCols=\count157
\dotsspace@=\muskip11
\c@parentequation=\count158
\dspbrk@lvl=\count159
\tag@help=\toks28
\row@=\count160
\column@=\count161
\maxfields@=\count162
\andhelp@=\toks29
\eqnshift@=\dimen166
\alignsep@=\dimen167
\tagshift@=\dimen168
\tagwidth@=\dimen169
\totwidth@=\dimen170
\lineht@=\dimen171
\@envbody=\toks30
\multlinegap=\skip194
Normal \skip register pool exhausted, switching to extended pool.
\multlinetaggap=\skip256
\mathdisplay@stack=\toks31
LaTeX Info: Redefining \[ on input line 2817.
LaTeX Info: Redefining \] on input line 2818.
)
(/usr/local/texlive/2018/texmf-dist/tex/latex/amsfonts/amsfonts.sty
Package: amsfonts 2013/01/14 v3.01 Basic AMSFonts support
\symAMSa=\mathgroup4
\symAMSb=\mathgroup5
LaTeX Font Info:    Overwriting math alphabet `\mathfrak' in version `bold'
(Font)                  U/euf/m/n --> U/euf/b/n on input line 106.
)
(/usr/local/texlive/2018/texmf-dist/tex/latex/adjustbox/adjustbox.sty
Package: adjustbox 2018/04/08 v1.1 Adjusting TeX boxes (trim, clip, ...)

(/usr/local/texlive/2018/texmf-dist/tex/latex/xkeyval/xkeyval.sty
Package: xkeyval 2014/12/03 v2.7a package option processing (HA)

(/usr/local/texlive/2018/texmf-dist/tex/generic/xkeyval/xkeyval.tex
(/usr/local/texlive/2018/texmf-dist/tex/generic/xkeyval/xkvutils.tex
\XKV@toks=\toks32
\XKV@tempa@toks=\toks33
)
\XKV@depth=\count163
File: xkeyval.tex 2014/12/03 v2.7a key=value parser (HA)
))
(/usr/local/texlive/2018/texmf-dist/tex/latex/adjustbox/adjcalc.sty
Package: adjcalc 2012/05/16 v1.1 Provides advanced setlength with multiple back
-ends (calc, etex, pgfmath)
)
(/usr/local/texlive/2018/texmf-dist/tex/latex/adjustbox/trimclip.sty
Package: trimclip 2018/04/08 v1.1 Trim and clip general TeX material

(/usr/local/texlive/2018/texmf-dist/tex/latex/collectbox/collectbox.sty
Package: collectbox 2012/05/17 v0.4b Collect macro arguments as boxes
\collectedbox=\box33
)
\tc@llx=\dimen172
\tc@lly=\dimen173
\tc@urx=\dimen174
\tc@ury=\dimen175
Package trimclip Info: Using driver 'tc-pdftex.def'.

(/usr/local/texlive/2018/texmf-dist/tex/latex/adjustbox/tc-pdftex.def
File: tc-pdftex.def 2018/04/08 v2.1 Clipping driver for pdftex
))
\adjbox@Width=\dimen176
\adjbox@Height=\dimen177
\adjbox@Depth=\dimen178
\adjbox@Totalheight=\dimen179
\adjbox@pwidth=\dimen180
\adjbox@pheight=\dimen181
\adjbox@pdepth=\dimen182
\adjbox@ptotalheight=\dimen183

(/usr/local/texlive/2018/texmf-dist/tex/latex/ifoddpage/ifoddpage.sty
Package: ifoddpage 2016/04/23 v1.1 Conditionals for odd/even page detection
\c@checkoddpage=\count164
LaTeX Info: Redefining \checkoddpage on input line 45.
)
(/usr/local/texlive/2018/texmf-dist/tex/latex/varwidth/varwidth.sty
Package: varwidth 2009/03/30 ver 0.92;  Variable-width minipages
\@vwid@box=\box34
\sift@deathcycles=\count165
\@vwid@loff=\dimen184
\@vwid@roff=\dimen185
))
(/usr/local/texlive/2018/texmf-dist/tex/latex/multirow/multirow.sty
Package: multirow 2016/11/25 v2.2 Span multiple rows of a table
\multirow@colwidth=\skip257
\multirow@cntb=\count166
\multirow@dima=\skip258
\bigstrutjot=\dimen186
)
(/usr/local/texlive/2018/texmf-dist/tex/latex/amsfonts/amssymb.sty
Package: amssymb 2013/01/14 v3.01 AMS font symbols
)
(/usr/local/texlive/2018/texmf-dist/tex/latex/tools/afterpage.sty
Package: afterpage 2014/10/28 v1.08 After-Page Package (DPC)
\AP@output=\toks34
\AP@partial=\box35
\AP@footins=\box36
)
(/usr/local/texlive/2018/texmf-dist/tex/latex/xcolor/xcolor.sty
Package: xcolor 2016/05/11 v2.12 LaTeX color extensions (UK)

(/usr/local/texlive/2018/texmf-dist/tex/latex/graphics-cfg/color.cfg
File: color.cfg 2016/01/02 v1.6 sample color configuration
)
Package xcolor Info: Driver file: pdftex.def on input line 225.

(/usr/local/texlive/2018/texmf-dist/tex/latex/colortbl/colortbl.sty
Package: colortbl 2012/02/13 v1.0a Color table columns (DPC)
\everycr=\toks35
\minrowclearance=\skip259
)
\rownum=\count167
Package xcolor Info: Model `cmy' substituted by `cmy0' on input line 1348.
Package xcolor Info: Model `hsb' substituted by `rgb' on input line 1352.
Package xcolor Info: Model `RGB' extended on input line 1364.
Package xcolor Info: Model `HTML' substituted by `rgb' on input line 1366.
Package xcolor Info: Model `Hsb' substituted by `hsb' on input line 1367.
Package xcolor Info: Model `tHsb' substituted by `hsb' on input line 1368.
Package xcolor Info: Model `HSB' substituted by `hsb' on input line 1369.
Package xcolor Info: Model `Gray' substituted by `gray' on input line 1370.
Package xcolor Info: Model `wave' substituted by `hsb' on input line 1371.
)
(/usr/local/texlive/2018/texmf-dist/tex/latex/graphics/lscape.sty
Package: lscape 2000/10/22 v3.01 Landscape Pages (DPC)
)
(/usr/local/texlive/2018/texmf-dist/tex/latex/hyperref/hyperref.sty
Package: hyperref 2018/02/06 v6.86b Hypertext links for LaTeX

(/usr/local/texlive/2018/texmf-dist/tex/generic/oberdiek/hobsub-hyperref.sty
Package: hobsub-hyperref 2016/05/16 v1.14 Bundle oberdiek, subset hyperref (HO)


(/usr/local/texlive/2018/texmf-dist/tex/generic/oberdiek/hobsub-generic.sty
Package: hobsub-generic 2016/05/16 v1.14 Bundle oberdiek, subset generic (HO)
Package: hobsub 2016/05/16 v1.14 Construct package bundles (HO)
Package: infwarerr 2016/05/16 v1.4 Providing info/warning/error messages (HO)
Package: ltxcmds 2016/05/16 v1.23 LaTeX kernel commands for general use (HO)
Package hobsub Info: Skipping package `ifluatex' (already loaded).
Package: ifvtex 2016/05/16 v1.6 Detect VTeX and its facilities (HO)
Package ifvtex Info: VTeX not detected.
Package: intcalc 2016/05/16 v1.2 Expandable calculations with integers (HO)
Package hobsub Info: Skipping package `ifpdf' (already loaded).
Package: etexcmds 2016/05/16 v1.6 Avoid name clashes with e-TeX commands (HO)
Package etexcmds Info: Could not find \expanded.
(etexcmds)             That can mean that you are not using pdfTeX 1.50 or
(etexcmds)             that some package has redefined \expanded.
(etexcmds)             In the latter case, load this package earlier.
Package: kvsetkeys 2016/05/16 v1.17 Key value parser (HO)
Package: kvdefinekeys 2016/05/16 v1.4 Define keys (HO)
Package: pdftexcmds 2018/01/30 v0.27 Utility functions of pdfTeX for LuaTeX (HO
)
Package pdftexcmds Info: LuaTeX not detected.
Package pdftexcmds Info: \pdf@primitive is available.
Package pdftexcmds Info: \pdf@ifprimitive is available.
Package pdftexcmds Info: \pdfdraftmode found.
Package: pdfescape 2016/05/16 v1.14 Implements pdfTeX's escape features (HO)
Package: bigintcalc 2016/05/16 v1.4 Expandable calculations on big integers (HO
)
Package: bitset 2016/05/16 v1.2 Handle bit-vector datatype (HO)
Package: uniquecounter 2016/05/16 v1.3 Provide unlimited unique counter (HO)
)
Package hobsub Info: Skipping package `hobsub' (already loaded).
Package hobsub Info: Skipping package `letltxmacro' (already loaded).
Package: hopatch 2016/05/16 v1.3 Wrapper for package hooks (HO)
Package: xcolor-patch 2016/05/16 xcolor patch
Package: atveryend 2016/05/16 v1.9 Hooks at the very end of document (HO)
Package: atbegshi 2016/06/09 v1.18 At begin shipout hook (HO)
Package: refcount 2016/05/16 v3.5 Data extraction from label references (HO)
Package: hycolor 2016/05/16 v1.8 Color options for hyperref/bookmark (HO)
)
(/usr/local/texlive/2018/texmf-dist/tex/latex/oberdiek/auxhook.sty
Package: auxhook 2016/05/16 v1.4 Hooks for auxiliary files (HO)
)
(/usr/local/texlive/2018/texmf-dist/tex/latex/oberdiek/kvoptions.sty
Package: kvoptions 2016/05/16 v3.12 Key value format for package options (HO)
)
\@linkdim=\dimen187
\Hy@linkcounter=\count168
\Hy@pagecounter=\count169

(/usr/local/texlive/2018/texmf-dist/tex/latex/hyperref/pd1enc.def
File: pd1enc.def 2018/02/06 v6.86b Hyperref: PDFDocEncoding definition (HO)
Now handling font encoding PD1 ...
... no UTF-8 mapping file for font encoding PD1
)
\Hy@SavedSpaceFactor=\count170

(/usr/local/texlive/2018/texmf-dist/tex/latex/latexconfig/hyperref.cfg
File: hyperref.cfg 2002/06/06 v1.2 hyperref configuration of TeXLive
)

Package hyperref Warning: Option `a4paper' is no longer used.

Package hyperref Info: Option `bookmarks' set `true' on input line 4383.
Package hyperref Info: Option `bookmarksnumbered' set `true' on input line 4383
.
Package hyperref Info: Option `linktocpage' set `true' on input line 4383.
Package hyperref Info: Option `colorlinks' set `true' on input line 4383.
Package hyperref Info: Hyper figures OFF on input line 4509.
Package hyperref Info: Link nesting OFF on input line 4514.
Package hyperref Info: Hyper index ON on input line 4517.
Package hyperref Info: Plain pages OFF on input line 4524.
Package hyperref Info: Backreferencing OFF on input line 4529.
Package hyperref Info: Implicit mode ON; LaTeX internals redefined.
Package hyperref Info: Bookmarks ON on input line 4762.
\c@Hy@tempcnt=\count171
LaTeX Info: Redefining \url on input line 5115.
\XeTeXLinkMargin=\dimen188
\Fld@menulength=\count172
\Field@Width=\dimen189
\Fld@charsize=\dimen190
Package hyperref Info: Hyper figures OFF on input line 6369.
Package hyperref Info: Link nesting OFF on input line 6374.
Package hyperref Info: Hyper index ON on input line 6377.
Package hyperref Info: backreferencing OFF on input line 6384.
Package hyperref Info: Link coloring ON on input line 6387.
Package hyperref Info: Link coloring with OCG OFF on input line 6394.
Package hyperref Info: PDF/A mode OFF on input line 6399.
LaTeX Info: Redefining \ref on input line 6439.
LaTeX Info: Redefining \pageref on input line 6443.
\Hy@abspage=\count173
\c@Item=\count174
\c@Hfootnote=\count175
) (/usr/local/texlive/2018/texmf-dist/tex/latex/memoir/memhfixc.sty
Package: memhfixc 2013/05/30 v1.17 nameref/hyperref package fixes for memoir cl
ass
\c@memhycontfloat=\count176
\c@Hpagenote=\count177
)
Package hyperref Info: Driver (autodetected): hpdftex.

(/usr/local/texlive/2018/texmf-dist/tex/latex/hyperref/hpdftex.def
File: hpdftex.def 2018/02/06 v6.86b Hyperref driver for pdfTeX
\Fld@listcount=\count178
\c@bookmark@seq@number=\count179

(/usr/local/texlive/2018/texmf-dist/tex/latex/oberdiek/rerunfilecheck.sty
Package: rerunfilecheck 2016/05/16 v1.8 Rerun checks for auxiliary files (HO)
Package uniquecounter Info: New unique counter `rerunfilecheck' on input line 2
82.
)
\Hy@SectionHShift=\skip260
)
(/usr/local/texlive/2018/texmf-dist/tex/latex/natbib/natbib.sty
Package: natbib 2010/09/13 8.31b (PWD, AO)
\bibhang=\skip261
\bibsep=\skip262
LaTeX Info: Redefining \cite on input line 694.
\c@NAT@ctr=\count180
) (./exemplo.aux)
\openout1 = `exemplo.aux'.

LaTeX Font Info:    Checking defaults for OML/cmm/m/it on input line 44.
LaTeX Font Info:    ... okay on input line 44.
LaTeX Font Info:    Checking defaults for T1/cmr/m/n on input line 44.
LaTeX Font Info:    ... okay on input line 44.
LaTeX Font Info:    Checking defaults for OT1/cmr/m/n on input line 44.
LaTeX Font Info:    ... okay on input line 44.
LaTeX Font Info:    Checking defaults for OMS/cmsy/m/n on input line 44.
LaTeX Font Info:    ... okay on input line 44.
LaTeX Font Info:    Checking defaults for OMX/cmex/m/n on input line 44.
LaTeX Font Info:    ... okay on input line 44.
LaTeX Font Info:    Checking defaults for U/cmr/m/n on input line 44.
LaTeX Font Info:    ... okay on input line 44.
LaTeX Font Info:    Checking defaults for PD1/pdf/m/n on input line 44.
LaTeX Font Info:    ... okay on input line 44.
Package caption Info: Begin \AtBeginDocument code.
Package caption Info: hyperref package is loaded.
Package caption Info: rotating package is loaded.
Package caption Info: End \AtBeginDocument code.
 (/usr/local/texlive/2018/texmf-dist/tex/context/base/mkii/supp-pdf.mkii
[Loading MPS to PDF converter (version 2006.09.02).]
\scratchcounter=\count181
\scratchdimen=\dimen191
\scratchbox=\box37
\nofMPsegments=\count182
\nofMParguments=\count183
\everyMPshowfont=\toks36
\MPscratchCnt=\count184
\MPscratchDim=\dimen192
\MPnumerator=\count185
\makeMPintoPDFobject=\count186
\everyMPtoPDFconversion=\toks37
) (/usr/local/texlive/2018/texmf-dist/tex/latex/oberdiek/epstopdf-base.sty
Package: epstopdf-base 2016/05/15 v2.6 Base part for package epstopdf

(/usr/local/texlive/2018/texmf-dist/tex/latex/oberdiek/grfext.sty
Package: grfext 2016/05/16 v1.2 Manage graphics extensions (HO)
)
Package epstopdf-base Info: Redefining graphics rule for `.eps' on input line 4
38.
Package grfext Info: Graphics extension search list:
(grfext)             [.pdf,.png,.jpg,.mps,.jpeg,.jbig2,.jb2,.PDF,.PNG,.JPG,.JPE
G,.JBIG2,.JB2,.eps]
(grfext)             \AppendGraphicsExtensions on input line 456.

(/usr/local/texlive/2018/texmf-dist/tex/latex/latexconfig/epstopdf-sys.cfg
File: epstopdf-sys.cfg 2010/07/13 v1.3 Configuration of (r)epstopdf for TeX Liv
e
))
\AtBeginShipoutBox=\box38
Package hyperref Info: Link coloring ON on input line 44.

(/usr/local/texlive/2018/texmf-dist/tex/latex/hyperref/nameref.sty
Package: nameref 2016/05/21 v2.44 Cross-referencing by name of section

(/usr/local/texlive/2018/texmf-dist/tex/generic/oberdiek/gettitlestring.sty
Package: gettitlestring 2016/05/16 v1.5 Cleanup title references (HO)
)
\c@section@level=\count187
)
Redoing nameref's sectioning
Redoing nameref's label
LaTeX Info: Redefining \nameref on input line 44.
LaTeX Info: Redefining \ref on input line 44.
LaTeX Info: Redefining \pageref on input line 44.
LaTeX Info: Redefining \nameref on input line 44.
(./exemplo.out) (./exemplo.out)
\@outlinefile=\write4
\openout4 = `exemplo.out'.

LaTeX Font Info:    Try loading font information for U+msa on input line 74.

(/usr/local/texlive/2018/texmf-dist/tex/latex/amsfonts/umsa.fd
File: umsa.fd 2013/01/14 v3.01 AMS symbols A
)
LaTeX Font Info:    Try loading font information for U+msb on input line 74.

(/usr/local/texlive/2018/texmf-dist/tex/latex/amsfonts/umsb.fd
File: umsb.fd 2013/01/14 v3.01 AMS symbols B
)
Package babel Info: Redefining portuges shorthand "|
(babel)             in language  on input line 74.
Package babel Info: Redefining portuges shorthand "|
(babel)             in language  on input line 74.
 [1



{/usr/local/texlive/2018/texmf-var/fonts/map/pdftex/updmap/pdftex.map}]
Package babel Info: Redefining portuges shorthand "|
(babel)             in language  on input line 74.
Package babel Info: Redefining portuges shorthand "|
(babel)             in language  on input line 74.
 [2


]
Package babel Info: Redefining portuges shorthand "|
(babel)             in language  on input line 74.
Package babel Info: Redefining portuges shorthand "|
(babel)             in language  on input line 74.
 [3]
Package babel Info: Redefining portuges shorthand "|
(babel)             in language  on input line 74.
Package babel Info: Redefining portuges shorthand "|
(babel)             in language  on input line 74.
 [4


]
LaTeX Font Info:    Try loading font information for T1+cmtt on input line 74.

(/usr/local/texlive/2018/texmf-dist/tex/latex/base/t1cmtt.fd
File: t1cmtt.fd 2014/09/29 v2.5h Standard LaTeX font definitions
)
Package babel Info: Redefining portuges shorthand "|
(babel)             in language  on input line 74.
Package babel Info: Redefining portuges shorthand "|
(babel)             in language  on input line 74.
 [5]
Package babel Info: Redefining portuges shorthand "|
(babel)             in language  on input line 74.
Package babel Info: Redefining portuges shorthand "|
(babel)             in language  on input line 74.
 [6


]

Class ppgccufmg Warning: Linguagem nao definida: 
 Adotando a linguagem padrao `brazil'.
 on input line 74.

LaTeX Font Info:    Try loading font information for T1+cmss on input line 74.
(/usr/local/texlive/2018/texmf-dist/tex/latex/base/t1cmss.fd
File: t1cmss.fd 2014/09/29 v2.5h Standard LaTeX font definitions
)
Package babel Info: Redefining portuges shorthand "|
(babel)             in language  on input line 74.
 (./resumo.tex)
Package babel Info: Redefining portuges shorthand "|
(babel)             in language  on input line 74.
Package babel Info: Redefining portuges shorthand "|
(babel)             in language  on input line 74.

[7

]
Package babel Info: Redefining portuges shorthand "|
(babel)             in language  on input line 74.
Package babel Info: Redefining portuges shorthand "|
(babel)             in language  on input line 74.
 [8


]
Package babel Info: Redefining portuges shorthand "|
(babel)             in language  on input line 74.
 (./abstract.tex)
Package babel Info: Redefining portuges shorthand "|
(babel)             in language  on input line 74.
Package babel Info: Redefining portuges shorthand "|
(babel)             in language  on input line 74.
 [9

]
Package babel Info: Redefining portuges shorthand "|
(babel)             in language  on input line 74.
Package babel Info: Redefining portuges shorthand "|
(babel)             in language  on input line 74.
 [10


]
Package babel Info: Redefining portuges shorthand "|
(babel)             in language  on input line 74.
 (./exemplo.lof

Package natbib Warning: Citation `baeza2013recuperaccao' on page xi undefined o
n input line 6.

)
Package babel Info: Redefining portuges shorthand "|
(babel)             in language  on input line 74.
Package babel Info: Redefining portuges shorthand "|
(babel)             in language  on input line 74.
 [11]
Package babel Info: Redefining portuges shorthand "|
(babel)             in language  on input line 74.
Package babel Info: Redefining portuges shorthand "|
(babel)             in language  on input line 74.
 [12


]
Package babel Info: Redefining portuges shorthand "|
(babel)             in language  on input line 74.
 (./exemplo.lot)
Package babel Info: Redefining portuges shorthand "|
(babel)             in language  on input line 74.
Package babel Info: Redefining portuges shorthand "|
(babel)             in language  on input line 74.
 [13]
Package babel Info: Redefining portuges shorthand "|
(babel)             in language  on input line 74.
Package babel Info: Redefining portuges shorthand "|
(babel)             in language  on input line 74.
 [14


] (./exemplo.toc
Underfull \vbox (badness 1540) has occurred while \output is active []

Package babel Info: Redefining portuges shorthand "|
(babel)             in language  on input line 20.
Package babel Info: Redefining portuges shorthand "|
(babel)             in language  on input line 20.
 [15]
Package babel Info: Redefining portuges shorthand "|
(babel)             in language  on input line 46.
Package babel Info: Redefining portuges shorthand "|
(babel)             in language  on input line 46.

[16])
Package babel Info: Redefining portuges shorthand "|
(babel)             in language  on input line 74.
Package babel Info: Redefining portuges shorthand "|
(babel)             in language  on input line 74.
 [17]
Package babel Info: Redefining portuges shorthand "|
(babel)             in language  on input line 74.
Package babel Info: Redefining portuges shorthand "|
(babel)             in language  on input line 74.
 [18



] (./capitulos/introducao.tex
Package babel Info: Redefining portuges shorthand "|
(babel)             in language  on input line 1.


Package natbib Warning: Citation `allcott2017social' on page 1 undefined on inp
ut line 3.


Package natbib Warning: Citation `silverman2016' on page 1 undefined on input l
ine 3.


Package natbib Warning: Citation `narayanan2018polarization' on page 1 undefine
d on input line 3.


Package natbib Warning: Citation `lazer2018science' on page 1 undefined on inpu
t line 3.


Package natbib Warning: Citation `lazer2018science' on page 1 undefined on inpu
t line 5.


Package natbib Warning: Citation `shu2017fake' on page 1 undefined on input lin
e 5.


Package natbib Warning: Citation `domonoske2016students' on page 1 undefined on
 input line 5.


Package natbib Warning: Citation `forbes2016' on page 1 undefined on input line
 5.


Underfull \vbox (badness 10000) has occurred while \output is active []

Package babel Info: Redefining portuges shorthand "|
(babel)             in language  on input line 8.
Package babel Info: Redefining portuges shorthand "|
(babel)             in language  on input line 8.
 [1

]

Package natbib Warning: Citation `howell2013digital' on page 2 undefined on inp
ut line 8.


Package natbib Warning: Citation `allcott2008fakenews' on page 2 undefined on i
nput line 8.


Package natbib Warning: Citation `castillo2011information' on page 2 undefined 
on input line 8.

Package babel Info: Redefining portuges shorthand "|
(babel)             in language  on input line 10.

Package natbib Warning: Citation `rashkin2017truth' on page 2 undefined on inpu
t line 16.


Package natbib Warning: Citation `hossein2018tensor' on page 2 undefined on inp
ut line 16.


Package natbib Warning: Citation `fairbanks2018credibility' on page 2 undefined
 on input line 17.


Package natbib Warning: Citation `wu2018tracing' on page 2 undefined on input l
ine 17.


Package natbib Warning: Citation `ruchansky2017csi' on page 2 undefined on inpu
t line 17.

Package babel Info: Redefining portuges shorthand "|
(babel)             in language  on input line 22.
Package babel Info: Redefining portuges shorthand "|
(babel)             in language  on input line 22.
[2]
Package babel Info: Redefining portuges shorthand "|
(babel)             in language  on input line 22.
Package babel Info: Redefining portuges shorthand "|
(babel)             in language  on input line 36.


LaTeX Warning: Reference `sec:trabalhos_relacionados' on page 3 undefined on in
put line 37.


LaTeX Warning: Reference `sec:metodologia' on page 3 undefined on input line 37
.


LaTeX Warning: Reference `sec:experimentos' on page 3 undefined on input line 3
7.

) (./capitulos/fundamentacao_teorica.tex
Package babel Info: Redefining portuges shorthand "|
(babel)             in language  on input line 1.
Package babel Info: Redefining portuges shorthand "|
(babel)             in language  on input line 1.
 [3]
Package babel Info: Redefining portuges shorthand "|
(babel)             in language  on input line 1.
Package babel Info: Redefining portuges shorthand "|
(babel)             in language  on input line 1.
 [4

]
Package babel Info: Redefining portuges shorthand "|
(babel)             in language  on input line 1.
Package babel Info: Redefining portuges shorthand "|
(babel)             in language  on input line 7.


Package natbib Warning: Citation `allcott2017social' on page 5 undefined on inp
ut line 8.


Package natbib Warning: Citation `shu2017fake' on page 5 undefined on input lin
e 8.

\c@fake_def=\count188
Package babel Info: Redefining portuges shorthand "|
(babel)             in language  on input line 19.
Package babel Info: Redefining portuges shorthand "|
(babel)             in language  on input line 19.
[5]

Package natbib Warning: Citation `clarissa2018' on page 6 undefined on input li
ne 21.

Package babel Info: Redefining portuges shorthand "|
(babel)             in language  on input line 34.
Package babel Info: Redefining portuges shorthand "|
(babel)             in language  on input line 34.
[6]
Package babel Info: Redefining portuges shorthand "|
(babel)             in language  on input line 38.

* ppgccufmg: Pelo menos uma ilustracao encontrada.
<imagens/documentos_exemplo.pdf, id=390, 681.50612pt x 145.98538pt>
File: imagens/documentos_exemplo.pdf Graphic file (type pdf)
<use imagens/documentos_exemplo.pdf>
Package pdftex.def Info: imagens/documentos_exemplo.pdf  used on input line 45.

(pdftex.def)             Requested size: 441.0pt x 94.46613pt.

Package natbib Warning: Citation `baeza2013recuperaccao' on page 7 undefined on
 input line 46.


Package natbib Warning: Citation `baeza2013recuperaccao' on page 7 undefined on
 input line 46.

Package babel Info: Redefining portuges shorthand "|
(babel)             in language  on input line 50.
Package babel Info: Redefining portuges shorthand "|
(babel)             in language  on input line 79.
Package babel Info: Redefining portuges shorthand "|
(babel)             in language  on input line 79.
[7 <./imagens/documentos_exemplo.pdf>]
Package babel Info: Redefining portuges shorthand "|
(babel)             in language  on input line 79.


Package natbib Warning: Citation `baeza2013recuperaccao' on page 8 undefined on
 input line 80.

Package babel Info: Redefining portuges shorthand "|
(babel)             in language  on input line 118.
Package babel Info: Redefining portuges shorthand "|
(babel)             in language  on input line 118.
[8]
Package babel Info: Redefining portuges shorthand "|
(babel)             in language  on input line 124.


Package natbib Warning: Citation `fisicaro2018part' on page 9 undefined on inpu
t line 126.

Package babel Info: Redefining portuges shorthand "|
(babel)             in language  on input line 158.

Package natbib Warning: Citation `mohri2012foundations' on page 9 undefined on 
input line 159.


Package natbib Warning: Citation `shalev2014understanding' on page 9 undefined 
on input line 159.


Package natbib Warning: Citation `mohri2012foundations' on page 9 undefined on 
input line 159.

Package babel Info: Redefining portuges shorthand "|
(babel)             in language  on input line 161.
Package babel Info: Redefining portuges shorthand "|
(babel)             in language  on input line 161.
[9]
Package babel Info: Redefining portuges shorthand "|
(babel)             in language  on input line 162.


Package natbib Warning: Citation `baeza2013recuperaccao' on page 10 undefined o
n input line 164.


Package natbib Warning: Citation `liao2002use' on page 10 undefined on input li
ne 165.

<imagens/knn_example.pdf, id=449, 205.69286pt x 154.41469pt>
File: imagens/knn_example.pdf Graphic file (type pdf)
<use imagens/knn_example.pdf>
Package pdftex.def Info: imagens/knn_example.pdf  used on input line 169.
(pdftex.def)             Requested size: 176.39731pt x 132.42412pt.
Package babel Info: Redefining portuges shorthand "|
(babel)             in language  on input line 175.
Package babel Info: Redefining portuges shorthand "|
(babel)             in language  on input line 175.
[10]
Package babel Info: Redefining portuges shorthand "|
(babel)             in language  on input line 176.


Package natbib Warning: Citation `langley1992analysis' on page 11 undefined on 
input line 183.


Package natbib Warning: Citation `lewis1998naive' on page 11 undefined on input
 line 184.


Underfull \vbox (badness 6978) has occurred while \output is active []

Package babel Info: Redefining portuges shorthand "|
(babel)             in language  on input line 194.
Package babel Info: Redefining portuges shorthand "|
(babel)             in language  on input line 194.
 [11 <./imagens/knn_example.pdf>]
Package babel Info: Redefining portuges shorthand "|
(babel)             in language  on input line 205.


Package natbib Warning: Citation `pang2002thumbs' on page 12 undefined on input
 line 208.

Package babel Info: Redefining portuges shorthand "|
(babel)             in language  on input line 219.

Package natbib Warning: Citation `liaw2002classification' on page 12 undefined 
on input line 221.


Underfull \vbox (badness 10000) has occurred while \output is active []

Package babel Info: Redefining portuges shorthand "|
(babel)             in language  on input line 222.
Package babel Info: Redefining portuges shorthand "|
(babel)             in language  on input line 222.
 [12]

Package natbib Warning: Citation `biau2008consistency' on page 13 undefined on 
input line 224.

Package babel Info: Redefining portuges shorthand "|
(babel)             in language  on input line 235.

Package natbib Warning: Citation `chandrashekar2014survey' on page 13 undefined
 on input line 237.


Package natbib Warning: Citation `bolon2011feature' on page 13 undefined on inp
ut line 237.


Package natbib Warning: Citation `zainal2006feature' on page 13 undefined on in
put line 237.


Package natbib Warning: Citation `mitchell1990machine' on page 13 undefined on 
input line 240.


Package natbib Warning: Citation `quinlan1986induction' on page 13 undefined on
 input line 240.


Underfull \vbox (badness 4303) has occurred while \output is active []

Package babel Info: Redefining portuges shorthand "|
(babel)             in language  on input line 248.
Package babel Info: Redefining portuges shorthand "|
(babel)             in language  on input line 248.
 [13]
Package babel Info: Redefining portuges shorthand "|
(babel)             in language  on input line 251.


Package natbib Warning: Citation `rosso2009shakespeare' on page 14 undefined on
 input line 252.

Package babel Info: Redefining portuges shorthand "|
(babel)             in language  on input line 254.

Package natbib Warning: Citation `lesne2014shannon' on page 14 undefined on inp
ut line 255.

Package babel Info: Redefining portuges shorthand "|
(babel)             in language  on input line 261.

Package natbib Warning: Citation `mimno2009polylingual' on page 14 undefined on
 input line 262.

Package babel Info: Redefining portuges shorthand "|
(babel)             in language  on input line 263.
Package babel Info: Redefining portuges shorthand "|
(babel)             in language  on input line 263.
[14]
Package babel Info: Redefining portuges shorthand "|
(babel)             in language  on input line 271.
Package babel Info: Redefining portuges shorthand "|
(babel)             in language  on input line 274.


Package natbib Warning: Citation `kohavi1995study' on page 15 undefined on inpu
t line 275.


Package natbib Warning: Citation `witten2016data' on page 15 undefined on input
 line 278.

Package babel Info: Redefining portuges shorthand "|
(babel)             in language  on input line 280.

Package natbib Warning: Citation `wong2015performance' on page 15 undefined on 
input line 282.


Package natbib Warning: Citation `cawley2003efficient' on page 15 undefined on 
input line 285.

Package babel Info: Redefining portuges shorthand "|
(babel)             in language  on input line 286.
Package babel Info: Redefining portuges shorthand "|
(babel)             in language  on input line 286.
[15]
Package babel Info: Redefining portuges shorthand "|
(babel)             in language  on input line 290.


Package natbib Warning: Citation `sokolova2006beyond' on page 16 undefined on i
nput line 292.


LaTeX Warning: No positions in optional float specifier.
               Default added (so using `tbp') on input line 295.

Package babel Info: Redefining portuges shorthand "|
(babel)             in language  on input line 310.

Package natbib Warning: Citation `baeza2013recuperaccao' on page 16 undefined o
n input line 312.

Package babel Info: Redefining portuges shorthand "|
(babel)             in language  on input line 316.
Package babel Info: Redefining portuges shorthand "|
(babel)             in language  on input line 316.
[16]
Package babel Info: Redefining portuges shorthand "|
(babel)             in language  on input line 318.
Package babel Info: Redefining portuges shorthand "|
(babel)             in language  on input line 325.


Package natbib Warning: Citation `baeza2013recuperaccao' on page 17 undefined o
n input line 326.

Package babel Info: Redefining portuges shorthand "|
(babel)             in language  on input line 333.
) (./capitulos/trabalhos_relacionados.tex
Package babel Info: Redefining portuges shorthand "|
(babel)             in language  on input line 2.
Package babel Info: Redefining portuges shorthand "|
(babel)             in language  on input line 2.
 [17]
Package babel Info: Redefining portuges shorthand "|
(babel)             in language  on input line 2.
Package babel Info: Redefining portuges shorthand "|
(babel)             in language  on input line 2.
 [18

]
Package babel Info: Redefining portuges shorthand "|
(babel)             in language  on input line 2.


Package natbib Warning: Citation `lazer2018science' on page 19 undefined on inp
ut line 5.

Package babel Info: Redefining portuges shorthand "|
(babel)             in language  on input line 11.

Package natbib Warning: Citation `tandoc2018defining' on page 19 undefined on i
nput line 12.

LaTeX Font Info:    Try loading font information for OMS+cmr on input line 20.
(/usr/local/texlive/2018/texmf-dist/tex/latex/base/omscmr.fd
File: omscmr.fd 2014/09/29 v2.5h Standard LaTeX font definitions
)
LaTeX Font Info:    Font shape `OMS/cmr/m/n' in size <12> not available
(Font)              Font shape `OMS/cmsy/m/n' tried instead on input line 20.


Package natbib Warning: Citation `bsdetector-kaggle' on page 19 undefined on in
put line 20.

Package babel Info: Redefining portuges shorthand "|
(babel)             in language  on input line 21.
Package babel Info: Redefining portuges shorthand "|
(babel)             in language  on input line 21.
[19]

Package natbib Warning: Citation `perez@coling2018' on page 20 undefined on inp
ut line 24.


Package natbib Warning: Citation `mitra2015credbank' on page 20 undefined on in
put line 26.


Package natbib Warning: Citation `silverman2015lies' on page 20 undefined on in
put line 29.


Package natbib Warning: Citation `wang2017liar' on page 20 undefined on input l
ine 31.

Package babel Info: Redefining portuges shorthand "|
(babel)             in language  on input line 34.
Package babel Info: Redefining portuges shorthand "|
(babel)             in language  on input line 34.
[20]
Underfull \hbox (badness 10000) in paragraph at lines 34--34
[][] [][][]\T1/cmr/m/n/10 www.usnews.com/news/national-news/articles/2016-11-14
/avoid-these-fake-news-sites-at-all-
 []


Package natbib Warning: Citation `shu2017exploiting' on page 21 undefined on in
put line 36.


Package natbib Warning: Citation `allcott2017social' on page 21 undefined on in
put line 38.


LaTeX Warning: Reference `' on page 21 undefined on input line 42.


Package natbib Warning: Citation `wang2017liar' on page 21 undefined on input l
ine 44.


Package natbib Warning: Citation `allcott2017social' on page 21 undefined on in
put line 44.


Package natbib Warning: Citation `shu2017exploiting' on page 21 undefined on in
put line 44.

Package babel Info: Redefining portuges shorthand "|
(babel)             in language  on input line 45.
Package babel Info: Redefining portuges shorthand "|
(babel)             in language  on input line 45.
[21]
Package babel Info: Redefining portuges shorthand "|
(babel)             in language  on input line 79.


Package natbib Warning: Citation `shu2017fake' on page 22 undefined on input li
ne 80.


Package natbib Warning: Citation `kumar2018false' on page 22 undefined on input
 line 83.


Package natbib Warning: Citation `hossein2018tensor' on page 22 undefined on in
put line 83.


Package natbib Warning: Citation `bsdetector-kaggle' on page 22 undefined on in
put line 83.


Package natbib Warning: Citation `rashkin2017truth' on page 22 undefined on inp
ut line 85.


Package natbib Warning: Citation `horne2017just' on page 22 undefined on input 
line 89.


Package natbib Warning: Citation `potthast@arxiv2017' on page 22 undefined on i
nput line 89.


Package natbib Warning: Citation `perez@coling2018' on page 22 undefined on inp
ut line 89.


Package natbib Warning: Citation `perez@coling2018' on page 22 undefined on inp
ut line 90.


Package natbib Warning: Citation `pennebaker2015liwc' on page 22 undefined on i
nput line 90.

Package babel Info: Redefining portuges shorthand "|
(babel)             in language  on input line 92.
Package babel Info: Redefining portuges shorthand "|
(babel)             in language  on input line 92.
[22]

Package natbib Warning: Citation `horne2017just' on page 23 undefined on input 
line 93.


Package natbib Warning: Citation `potthast@arxiv2017' on page 23 undefined on i
nput line 93.


Package natbib Warning: Citation `horne2017just' on page 23 undefined on input 
line 93.


Package natbib Warning: Citation `potthast@arxiv2017' on page 23 undefined on i
nput line 93.


Package natbib Warning: Citation `fairbanks2018credibility' on page 23 undefine
d on input line 95.

Package babel Info: Redefining portuges shorthand "|
(babel)             in language  on input line 96.
Package babel Info: Redefining portuges shorthand "|
(babel)             in language  on input line 96.
[23]

Package natbib Warning: Citation `castillo2011information' on page 24 undefined
 on input line 97.


Package natbib Warning: Citation `shu2017exploiting' on page 24 undefined on in
put line 97.


Package natbib Warning: Citation `ruchansky2017csi' on page 24 undefined on inp
ut line 97.


Package natbib Warning: Citation `castillo2011information' on page 24 undefined
 on input line 99.


Package natbib Warning: Citation `shu2017exploiting' on page 24 undefined on in
put line 101.


Package natbib Warning: Citation `ruchansky2017csi' on page 24 undefined on inp
ut line 105.


LaTeX Warning: No positions in optional float specifier.
               Default added (so using `tbp') on input line 108.


Package natbib Warning: Citation `castillo2011information' on page 24 undefined
 on input line 114.


Package natbib Warning: Citation `shu2017exploiting' on page 24 undefined on in
put line 115.


Package natbib Warning: Citation `rashkin2017truth' on page 24 undefined on inp
ut line 116.


Package natbib Warning: Citation `horne2017just' on page 24 undefined on input 
line 117.


Package natbib Warning: Citation `potthast@arxiv2017' on page 24 undefined on i
nput line 118.


Package natbib Warning: Citation `ruchansky2017csi' on page 24 undefined on inp
ut line 119.


Package natbib Warning: Citation `perez@coling2018' on page 24 undefined on inp
ut line 120.


Package natbib Warning: Citation `hossein2018tensor' on page 24 undefined on in
put line 121.


Package natbib Warning: Citation `fairbanks2018credibility' on page 24 undefine
d on input line 122.

Package babel Info: Redefining portuges shorthand "|
(babel)             in language  on input line 127.
Package babel Info: Redefining portuges shorthand "|
(babel)             in language  on input line 127.
[24]
Package babel Info: Redefining portuges shorthand "|
(babel)             in language  on input line 129.


LaTeX Warning: Reference `sec:metodologia' on page 25 undefined on input line 1
30.

) (./capitulos/abordagem_proposta.tex
Package babel Info: Redefining portuges shorthand "|
(babel)             in language  on input line 1.
Package babel Info: Redefining portuges shorthand "|
(babel)             in language  on input line 1.
 [25]
Package babel Info: Redefining portuges shorthand "|
(babel)             in language  on input line 1.
Package babel Info: Redefining portuges shorthand "|
(babel)             in language  on input line 1.
 [26

]
Package babel Info: Redefining portuges shorthand "|
(babel)             in language  on input line 1.
Package babel Info: Redefining portuges shorthand "|
(babel)             in language  on input line 6.
Package babel Info: Redefining portuges shorthand "|
(babel)             in language  on input line 9.


Package natbib Warning: Citation `horne2017just' on page 27 undefined on input 
line 11.


Package natbib Warning: Citation `perez@coling2018' on page 27 undefined on inp
ut line 11.


Package natbib Warning: Citation `bakir2018fake' on page 27 undefined on input 
line 11.

Package babel Info: Redefining portuges shorthand "|
(babel)             in language  on input line 12.
Package babel Info: Redefining portuges shorthand "|
(babel)             in language  on input line 12.
[27]
Package babel Info: Redefining portuges shorthand "|
(babel)             in language  on input line 86.
Package babel Info: Redefining portuges shorthand "|
(babel)             in language  on input line 86.
 [28]

Package natbib Warning: Citation `rosso2009shakespeare' on page 29 undefined on
 input line 99.


Underfull \vbox (badness 3579) has occurred while \output is active []

Package babel Info: Redefining portuges shorthand "|
(babel)             in language  on input line 104.
Package babel Info: Redefining portuges shorthand "|
(babel)             in language  on input line 104.
 [29]
Package babel Info: Redefining portuges shorthand "|
(babel)             in language  on input line 106.
Package babel Info: Redefining portuges shorthand "|
(babel)             in language  on input line 113.
)
(./capitulos/resultados.tex
Package babel Info: Redefining portuges shorthand "|
(babel)             in language  on input line 1.
Package babel Info: Redefining portuges shorthand "|
(babel)             in language  on input line 1.
 [30]
Package babel Info: Redefining portuges shorthand "|
(babel)             in language  on input line 1.


Package natbib Warning: Citation `horne2017just' on page 31 undefined on input 
line 13.


Package natbib Warning: Citation `silverman2015lies' on page 31 undefined on in
put line 13.


Underfull \vbox (badness 10000) has occurred while \output is active []

Package babel Info: Redefining portuges shorthand "|
(babel)             in language  on input line 21.
Package babel Info: Redefining portuges shorthand "|
(babel)             in language  on input line 21.
 [31

]
Package babel Info: Redefining portuges shorthand "|
(babel)             in language  on input line 24.


Package natbib Warning: Citation `perez@coling2018' on page 32 undefined on inp
ut line 28.


Package natbib Warning: Citation `?' on page 32 undefined on input line 28.


Package natbib Warning: Citation `silverman2015lies' on page 32 undefined on in
put line 28.


Package natbib Warning: Citation `?' on page 32 undefined on input line 28.


Package natbib Warning: Citation `perez@coling2018' on page 32 undefined on inp
ut line 56.


LaTeX Warning: Reference `?' on page 32 undefined on input line 56.

Package babel Info: Redefining portuges shorthand "|
(babel)             in language  on input line 58.
Package babel Info: Redefining portuges shorthand "|
(babel)             in language  on input line 58.
[32]

Package natbib Warning: Citation `bird2004nltk' on page 33 undefined on input l
ine 63.


Package natbib Warning: Citation `klein2003accurate' on page 33 undefined on in
put line 63.


Package natbib Warning: Citation `pennebaker2015liwc' on page 33 undefined on i
nput line 63.

Package babel Info: Redefining portuges shorthand "|
(babel)             in language  on input line 76.
Package babel Info: Redefining portuges shorthand "|
(babel)             in language  on input line 76.
[33]
Package babel Info: Redefining portuges shorthand "|
(babel)             in language  on input line 76.


LaTeX Warning: Reference `' on page 34 undefined on input line 77.


LaTeX Warning: Reference `' on page 34 undefined on input line 77.

Package babel Info: Redefining portuges shorthand "|
(babel)             in language  on input line 86.
Package babel Info: Redefining portuges shorthand "|
(babel)             in language  on input line 86.
[34]
Package babel Info: Redefining portuges shorthand "|
(babel)             in language  on input line 94.
Package babel Info: Redefining portuges shorthand "|
(babel)             in language  on input line 94.
 [35]
Package babel Info: Redefining portuges shorthand "|
(babel)             in language  on input line 106.
Package babel Info: Redefining portuges shorthand "|
(babel)             in language  on input line 106.
 [36]
Package babel Info: Redefining portuges shorthand "|
(babel)             in language  on input line 108.


LaTeX Warning: Reference `tab:silverman_stylometric' on page 37 undefined on in
put line 119.


LaTeX Warning: Reference `tab:fakebr_stylometric' on page 37 undefined on input
 line 119.

Package babel Info: Redefining portuges shorthand "|
(babel)             in language  on input line 120.
Package babel Info: Redefining portuges shorthand "|
(babel)             in language  on input line 120.
[37]

LaTeX Warning: Reference `tab:silverman_stylometric' on page 38 undefined on in
put line 123.

Package babel Info: Redefining portuges shorthand "|
(babel)             in language  on input line 131.
Package babel Info: Redefining portuges shorthand "|
(babel)             in language  on input line 131.
[38]

LaTeX Warning: Reference `tab:silverman_stylometric' on page 39 undefined on in
put line 134.


LaTeX Warning: Reference `fig:cv_time_execution' on page 39 undefined on input 
line 139.

Package babel Info: Redefining portuges shorthand "|
(babel)             in language  on input line 140.
Package babel Info: Redefining portuges shorthand "|
(babel)             in language  on input line 140.
[39]

LaTeX Warning: No positions in optional float specifier.
               Default added (so using `tbp') on input line 144.


LaTeX Warning: No positions in optional float specifier.
               Default added (so using `tbp') on input line 169.

<imagens/plot_res_celebrity_headline.pdf, id=651, 406.90771pt x 303.58237pt>
File: imagens/plot_res_celebrity_headline.pdf Graphic file (type pdf)
<use imagens/plot_res_celebrity_headline.pdf>
Package pdftex.def Info: imagens/plot_res_celebrity_headline.pdf  used on input
 line 199.
(pdftex.def)             Requested size: 220.5pt x 164.50644pt.
<imagens/plot_res_celebrity_content.pdf, id=652, 406.90771pt x 303.58237pt>
File: imagens/plot_res_celebrity_content.pdf Graphic file (type pdf)
<use imagens/plot_res_celebrity_content.pdf>
Package pdftex.def Info: imagens/plot_res_celebrity_content.pdf  used on input 
line 204.
(pdftex.def)             Requested size: 220.5pt x 164.50644pt.
<imagens/plot_res_newsnet_headline.pdf, id=653, 406.90771pt x 303.58237pt>
File: imagens/plot_res_newsnet_headline.pdf Graphic file (type pdf)
<use imagens/plot_res_newsnet_headline.pdf>
Package pdftex.def Info: imagens/plot_res_newsnet_headline.pdf  used on input l
ine 219.
(pdftex.def)             Requested size: 220.5pt x 164.50644pt.
<imagens/plot_res_newsnet_content.pdf, id=654, 406.90771pt x 303.58237pt>
File: imagens/plot_res_newsnet_content.pdf Graphic file (type pdf)
<use imagens/plot_res_newsnet_content.pdf>
Package pdftex.def Info: imagens/plot_res_newsnet_content.pdf  used on input li
ne 224.
(pdftex.def)             Requested size: 220.5pt x 164.50644pt.

LaTeX Warning: No positions in optional float specifier.
               Default added (so using `tbp') on input line 234.


LaTeX Warning: No positions in optional float specifier.
               Default added (so using `tbp') on input line 271.

<imagens/plot_res_silverman_headline.pdf, id=655, 399.3796pt x 303.58237pt>
File: imagens/plot_res_silverman_headline.pdf Graphic file (type pdf)
<use imagens/plot_res_silverman_headline.pdf>
Package pdftex.def Info: imagens/plot_res_silverman_headline.pdf  used on input
 line 315.
(pdftex.def)             Requested size: 220.5pt x 167.61006pt.
<imagens/plot_res_silverman_content.pdf, id=656, 399.3796pt x 303.58237pt>
File: imagens/plot_res_silverman_content.pdf Graphic file (type pdf)
<use imagens/plot_res_silverman_content.pdf>
Package pdftex.def Info: imagens/plot_res_silverman_content.pdf  used on input 
line 320.
(pdftex.def)             Requested size: 220.5pt x 167.61006pt.

LaTeX Warning: No positions in optional float specifier.
               Default added (so using `tbp') on input line 328.


LaTeX Warning: No positions in optional float specifier.
               Default added (so using `tbp') on input line 358.

<imagens/plot_execution_time_celebrity_headline_train.pdf, id=657, 415.50232pt 
x 298.91177pt>
File: imagens/plot_execution_time_celebrity_headline_train.pdf Graphic file (ty
pe pdf)
<use imagens/plot_execution_time_celebrity_headline_train.pdf>
Package pdftex.def Info: imagens/plot_execution_time_celebrity_headline_train.p
df  used on input line 398.
(pdftex.def)             Requested size: 105.84242pt x 76.14166pt.
<imagens/plot_execution_time_celebrity_headline_test.pdf, id=658, 415.50232pt x
 298.91177pt>
File: imagens/plot_execution_time_celebrity_headline_test.pdf Graphic file (typ
e pdf)
<use imagens/plot_execution_time_celebrity_headline_test.pdf>
Package pdftex.def Info: imagens/plot_execution_time_celebrity_headline_test.pd
f  used on input line 403.
(pdftex.def)             Requested size: 105.84242pt x 76.14166pt.
<imagens/plot_execution_time_celebrity_content_train.pdf, id=659, 415.50232pt x
 298.91177pt>
File: imagens/plot_execution_time_celebrity_content_train.pdf Graphic file (typ
e pdf)
<use imagens/plot_execution_time_celebrity_content_train.pdf>
Package pdftex.def Info: imagens/plot_execution_time_celebrity_content_train.pd
f  used on input line 408.
(pdftex.def)             Requested size: 105.84242pt x 76.14166pt.
<imagens/plot_execution_time_celebrity_content_test.pdf, id=660, 415.50232pt x 
298.91177pt>
File: imagens/plot_execution_time_celebrity_content_test.pdf Graphic file (type
 pdf)
<use imagens/plot_execution_time_celebrity_content_test.pdf>
Package pdftex.def Info: imagens/plot_execution_time_celebrity_content_test.pdf
  used on input line 413.
(pdftex.def)             Requested size: 105.84242pt x 76.14166pt.
<imagens/plot_execution_time_newsnet_headline_train.pdf, id=661, 415.50232pt x 
298.91177pt>
File: imagens/plot_execution_time_newsnet_headline_train.pdf Graphic file (type
 pdf)
<use imagens/plot_execution_time_newsnet_headline_train.pdf>
Package pdftex.def Info: imagens/plot_execution_time_newsnet_headline_train.pdf
  used on input line 419.
(pdftex.def)             Requested size: 105.84242pt x 76.14166pt.
<imagens/plot_execution_time_newsnet_headline_test.pdf, id=662, 415.50232pt x 2
98.91177pt>
File: imagens/plot_execution_time_newsnet_headline_test.pdf Graphic file (type 
pdf)
<use imagens/plot_execution_time_newsnet_headline_test.pdf>
Package pdftex.def Info: imagens/plot_execution_time_newsnet_headline_test.pdf 
 used on input line 424.
(pdftex.def)             Requested size: 105.84242pt x 76.14166pt.
<imagens/plot_execution_time_newsnet_content_train.pdf, id=663, 415.50232pt x 2
98.91177pt>
File: imagens/plot_execution_time_newsnet_content_train.pdf Graphic file (type 
pdf)
<use imagens/plot_execution_time_newsnet_content_train.pdf>
Package pdftex.def Info: imagens/plot_execution_time_newsnet_content_train.pdf 
 used on input line 429.
(pdftex.def)             Requested size: 105.84242pt x 76.14166pt.
<imagens/plot_execution_time_newsnet_content_test.pdf, id=664, 415.50232pt x 29
8.91177pt>
File: imagens/plot_execution_time_newsnet_content_test.pdf Graphic file (type p
df)
<use imagens/plot_execution_time_newsnet_content_test.pdf>
Package pdftex.def Info: imagens/plot_execution_time_newsnet_content_test.pdf  
used on input line 434.
(pdftex.def)             Requested size: 105.84242pt x 76.14166pt.
Package babel Info: Redefining portuges shorthand "|
(babel)             in language  on input line 446.
)
Underfull \vbox (badness 4013) has occurred while \output is active []

Package babel Info: Redefining portuges shorthand "|
(babel)             in language  on input line 107.
Package babel Info: Redefining portuges shorthand "|
(babel)             in language  on input line 107.
 [40]
Package babel Info: Redefining portuges shorthand "|
(babel)             in language  on input line 107.
Package babel Info: Redefining portuges shorthand "|
(babel)             in language  on input line 107.

[41]
Underfull \vbox (badness 2057) has occurred while \output is active []

Package babel Info: Redefining portuges shorthand "|
(babel)             in language  on input line 109.
Package babel Info: Redefining portuges shorthand "|
(babel)             in language  on input line 109.
 [42 <./imagens/plot_res_celebrity_headline.pdf> <./imagens/plot_res_celebrity_
content.pdf

pdfTeX warning: /Library/TeX/texbin/pdflatex (file ./imagens/plot_res_celebrity
_content.pdf): PDF inclusion: multiple pdfs with page group included in a singl
e page
> <./imagens/plot_res_newsnet_headline.pdf

pdfTeX warning: /Library/TeX/texbin/pdflatex (file ./imagens/plot_res_newsnet_h
eadline.pdf): PDF inclusion: multiple pdfs with page group included in a single
 page
> <./imagens/plot_res_newsnet_content.pdf

pdfTeX warning: /Library/TeX/texbin/pdflatex (file ./imagens/plot_res_newsnet_c
ontent.pdf): PDF inclusion: multiple pdfs with page group included in a single 
page
>]
Package babel Info: Redefining portuges shorthand "|
(babel)             in language  on input line 109.
Package babel Info: Redefining portuges shorthand "|
(babel)             in language  on input line 109.
 [43 <./imagens/plot_res_silverman_headline.pdf> <./imagens/plot_res_silverman_
content.pdf

pdfTeX warning: /Library/TeX/texbin/pdflatex (file ./imagens/plot_res_silverman
_content.pdf): PDF inclusion: multiple pdfs with page group included in a singl
e page
> <./imagens/plot_execution_time_celebrity_headline_train.pdf

pdfTeX warning: /Library/TeX/texbin/pdflatex (file ./imagens/plot_execution_tim
e_celebrity_headline_train.pdf): PDF inclusion: multiple pdfs with page group i
ncluded in a single page
> <./imagens/plot_execution_time_celebrity_headline_test.pdf

pdfTeX warning: /Library/TeX/texbin/pdflatex (file ./imagens/plot_execution_tim
e_celebrity_headline_test.pdf): PDF inclusion: multiple pdfs with page group in
cluded in a single page
> <./imagens/plot_execution_time_celebrity_content_train.pdf

pdfTeX warning: /Library/TeX/texbin/pdflatex (file ./imagens/plot_execution_tim
e_celebrity_content_train.pdf): PDF inclusion: multiple pdfs with page group in
cluded in a single page
> <./imagens/plot_execution_time_celebrity_content_test.pdf

pdfTeX warning: /Library/TeX/texbin/pdflatex (file ./imagens/plot_execution_tim
e_celebrity_content_test.pdf): PDF inclusion: multiple pdfs with page group inc
luded in a single page
> <./imagens/plot_execution_time_newsnet_headline_train.pdf

pdfTeX warning: /Library/TeX/texbin/pdflatex (file ./imagens/plot_execution_tim
e_newsnet_headline_train.pdf): PDF inclusion: multiple pdfs with page group inc
luded in a single page
> <./imagens/plot_execution_time_newsnet_headline_test.pdf

pdfTeX warning: /Library/TeX/texbin/pdflatex (file ./imagens/plot_execution_tim
e_newsnet_headline_test.pdf): PDF inclusion: multiple pdfs with page group incl
uded in a single page
> <./imagens/plot_execution_time_newsnet_content_train.pdf

pdfTeX warning: /Library/TeX/texbin/pdflatex (file ./imagens/plot_execution_tim
e_newsnet_content_train.pdf): PDF inclusion: multiple pdfs with page group incl
uded in a single page
> <./imagens/plot_execution_time_newsnet_content_test.pdf

pdfTeX warning: /Library/TeX/texbin/pdflatex (file ./imagens/plot_execution_tim
e_newsnet_content_test.pdf): PDF inclusion: multiple pdfs with page group inclu
ded in a single page
>]
Package babel Info: Redefining portuges shorthand "|
(babel)             in language  on input line 109.
Package babel Info: Redefining portuges shorthand "|
(babel)             in language  on input line 109.
 [44

]
No file exemplo.bbl.

Package natbib Warning: There were undefined citations.

\tf@lof=\write5
\openout5 = `exemplo.lof'.

\tf@lot=\write6
\openout6 = `exemplo.lot'.

\tf@toc=\write7
\openout7 = `exemplo.toc'.

Package atveryend Info: Empty hook `BeforeClearDocument' on input line 115.
Package atveryend Info: Empty hook `AfterLastShipout' on input line 115.
(./exemplo.aux)
Package atveryend Info: Executing hook `AtVeryEndDocument' on input line 115.
Package atveryend Info: Executing hook `AtEndAfterFileList' on input line 115.
Package rerunfilecheck Info: File `exemplo.out' has not changed.
(rerunfilecheck)             Checksum: 6827F70A155228AAAB52FF74DBBE1BC9;3194.


LaTeX Warning: There were undefined references.

 )
(\end occurred inside a group at level 1)

### semi simple group (level 1) entered at line 44 (\begingroup)
### bottom level 
Here is how much of TeX's memory you used:
 14852 strings out of 492649
 223082 string characters out of 6129622
 448746 words of memory out of 5000000
 18309 multiletter control sequences out of 15000+600000
 29099 words of font info for 70 fonts, out of 8000000 for 9000
 1141 hyphenation exceptions out of 8191
 45i,19n,80p,1338b,1761s stack positions out of 5000i,500n,10000p,200000b,80000s
{/usr/local/texlive/2018/texmf-dist/fonts/enc/dvips/cm-super/cm
-super-t1.enc}</usr/local/texlive/2018/texmf-dist/fonts/type1/public/amsfonts/c
m/cmbx12.pfb></usr/local/texlive/2018/texmf-dist/fonts/type1/public/amsfonts/cm
/cmbx8.pfb></usr/local/texlive/2018/texmf-dist/fonts/type1/public/amsfonts/cm/c
mex10.pfb></usr/local/texlive/2018/texmf-dist/fonts/type1/public/amsfonts/cm/cm
mi10.pfb></usr/local/texlive/2018/texmf-dist/fonts/type1/public/amsfonts/cm/cmm
i12.pfb></usr/local/texlive/2018/texmf-dist/fonts/type1/public/amsfonts/cm/cmmi
6.pfb></usr/local/texlive/2018/texmf-dist/fonts/type1/public/amsfonts/cm/cmmi8.
pfb></usr/local/texlive/2018/texmf-dist/fonts/type1/public/amsfonts/cm/cmr12.pf
b></usr/local/texlive/2018/texmf-dist/fonts/type1/public/amsfonts/cm/cmr6.pfb><
/usr/local/texlive/2018/texmf-dist/fonts/type1/public/amsfonts/cm/cmr7.pfb></us
r/local/texlive/2018/texmf-dist/fonts/type1/public/amsfonts/cm/cmr8.pfb></usr/l
ocal/texlive/2018/texmf-dist/fonts/type1/public/amsfonts/cm/cmsy10.pfb></usr/lo
cal/texlive/2018/texmf-dist/fonts/type1/public/amsfonts/cm/cmsy6.pfb></usr/loca
l/texlive/2018/texmf-dist/fonts/type1/public/amsfonts/cm/cmsy8.pfb></usr/local/
texlive/2018/texmf-dist/fonts/type1/public/amsfonts/symbols/msam10.pfb></usr/lo
cal/texlive/2018/texmf-dist/fonts/type1/public/amsfonts/symbols/msbm10.pfb></us
r/local/texlive/2018/texmf-dist/fonts/type1/public/cm-super/sfbi1200.pfb></usr/
local/texlive/2018/texmf-dist/fonts/type1/public/cm-super/sfbx1000.pfb></usr/lo
cal/texlive/2018/texmf-dist/fonts/type1/public/cm-super/sfbx1200.pfb></usr/loca
l/texlive/2018/texmf-dist/fonts/type1/public/cm-super/sfbx1728.pfb></usr/local/
texlive/2018/texmf-dist/fonts/type1/public/cm-super/sfcc1200.pfb></usr/local/te
xlive/2018/texmf-dist/fonts/type1/public/cm-super/sfcc1440.pfb></usr/local/texl
ive/2018/texmf-dist/fonts/type1/public/cm-super/sfrm0700.pfb></usr/local/texliv
e/2018/texmf-dist/fonts/type1/public/cm-super/sfrm0800.pfb></usr/local/texlive/
2018/texmf-dist/fonts/type1/public/cm-super/sfrm1000.pfb></usr/local/texlive/20
18/texmf-dist/fonts/type1/public/cm-super/sfrm1095.pfb></usr/local/texlive/2018
/texmf-dist/fonts/type1/public/cm-super/sfrm1200.pfb></usr/local/texlive/2018/t
exmf-dist/fonts/type1/public/cm-super/sfrm1440.pfb></usr/local/texlive/2018/tex
mf-dist/fonts/type1/public/cm-super/sfrm2488.pfb></usr/local/texlive/2018/texmf
-dist/fonts/type1/public/cm-super/sfso1440.pfb></usr/local/texlive/2018/texmf-d
ist/fonts/type1/public/cm-super/sfsx1440.pfb></usr/local/texlive/2018/texmf-dis
t/fonts/type1/public/cm-super/sfsx1728.pfb></usr/local/texlive/2018/texmf-dist/
fonts/type1/public/cm-super/sfsx2488.pfb></usr/local/texlive/2018/texmf-dist/fo
nts/type1/public/cm-super/sfti1200.pfb></usr/local/texlive/2018/texmf-dist/font
s/type1/public/cm-super/sftt1200.pfb>
Output written on exemplo.pdf (62 pages, 846888 bytes).
PDF statistics:
 1371 PDF objects out of 1440 (max. 8388607)
 772 compressed objects within 8 object streams
 151 named destinations out of 1000 (max. 500000)
 441 words of extra memory for PDF output out of 10000 (max. 10000000)

