\relax 
\providecommand\hyper@newdestlabel[2]{}
\providecommand*{\memsetcounter}[2]{}
\catcode `"\active 
\providecommand\HyperFirstAtBeginDocument{\AtBeginDocument}
\HyperFirstAtBeginDocument{\ifx\hyper@anchor\@undefined
\global\let\oldcontentsline\contentsline
\gdef\contentsline#1#2#3#4{\oldcontentsline{#1}{#2}{#3}}
\global\let\oldnewlabel\newlabel
\gdef\newlabel#1#2{\newlabelxx{#1}#2}
\gdef\newlabelxx#1#2#3#4#5#6{\oldnewlabel{#1}{{#2}{#3}}}
\AtEndDocument{\ifx\hyper@anchor\@undefined
\let\contentsline\oldcontentsline
\let\newlabel\oldnewlabel
\fi}
\fi}
\global\let\hyper@last\relax 
\gdef\HyperFirstAtBeginDocument#1{#1}
\providecommand\HyField@AuxAddToFields[1]{}
\providecommand\HyField@AuxAddToCoFields[2]{}
\providecommand \oddpage@label [2]{}
\babel@aux{brazil}{}
\@writefile{lof}{\addvspace {10pt}}
\@writefile{lot}{\addvspace {10pt}}
\@writefile{toc}{\contentsline {chapter}{Resumo}{vii}{chapter*.1}}
\@writefile{lof}{\addvspace {10pt}}
\@writefile{lot}{\addvspace {10pt}}
\@writefile{toc}{\contentsline {chapter}{Abstract}{ix}{chapter*.2}}
\citation{baeza2013recuperaccao}
\@writefile{toc}{\contentsline {chapter}{Lista de Figuras}{xi}{section*.3}}
\@writefile{toc}{\contentsline {chapter}{Lista de Tabelas}{xiii}{section*.4}}
\setcounter{ppgcc@fc@frontpages}{17}
 
\citation{allcott2017social}
\citation{silverman2016}
\citation{narayanan2018polarization,lazer2018science}
\citation{lazer2018science}
\citation{shu2017fake}
\citation{domonoske2016students,forbes2016}
\@writefile{lof}{\addvspace {10pt}}
\@writefile{lot}{\addvspace {10pt}}
\@writefile{toc}{\contentsline {chapter}{\chapternumberline {1}Introdu\IeC {\c c}\IeC {\~a}o}{1}{chapter.1}}
\newlabel{sec:introducao}{{\M@TitleReference {1}{Introdu\IeC {\c c}\IeC {\~a}o}}{1}{Introdução}{chapter.1}{}}
\citation{howell2013digital}
\citation{allcott2008fakenews,castillo2011information}
\citation{rashkin2017truth,hossein2018tensor}
\citation{fairbanks2018credibility,wu2018tracing,ruchansky2017csi}
\@writefile{toc}{\contentsline {section}{\numberline {1.1}Problema}{2}{section.1.1}}
\@writefile{toc}{\contentsline {section}{\numberline {1.2}Objetivos}{3}{section.1.2}}
\@writefile{toc}{\contentsline {section}{\numberline {1.3}Organiza\IeC {\c c}\IeC {\~a}o da Disserta\IeC {\c c}\IeC {\~a}o}{3}{section.1.3}}
\newlabel{sec:organiza}{{\M@TitleReference {1.3}{Organiza\IeC {\c c}\IeC {\~a}o da Disserta\IeC {\c c}\IeC {\~a}o}}{3}{Organização da Dissertação}{section.1.3}{}}
\citation{allcott2017social,shu2017fake}
\@writefile{lof}{\addvspace {10pt}}
\@writefile{lot}{\addvspace {10pt}}
\@writefile{toc}{\contentsline {chapter}{\chapternumberline {2}Theoretical Background}{5}{chapter.2}}
\newlabel{chap:fundamentacao}{{\M@TitleReference {2}{Theoretical Background}}{5}{Theoretical Background}{chapter.2}{}}
\@writefile{toc}{\contentsline {section}{\numberline {2.1}Not\IeC {\'\i }cias Falsas}{5}{section.2.1}}
\newlabel{sec:fake_news}{{\M@TitleReference {2.1}{Not\IeC {\'\i }cias Falsas}}{5}{Notícias Falsas}{section.2.1}{}}
\newlabel{def:fake_1}{{\M@TitleReference {1}{Not\IeC {\'\i }cias Falsas}}{5}{Notícias Falsas}{fake_def.1}{}}
\citation{clarissa2018}
\newlabel{def:fake_2}{{\M@TitleReference {2}{Not\IeC {\'\i }cias Falsas}}{6}{Notícias Falsas}{fake_def.2}{}}
\ppgcc@fc@ilaux{}
 
\citation{baeza2013recuperaccao}
\citation{baeza2013recuperaccao}
\@writefile{toc}{\contentsline {section}{\numberline {2.2}Data representation}{7}{section.2.2}}
\newlabel{sec:feat_repr}{{\M@TitleReference {2.2}{Data representation}}{7}{Data representation}{section.2.2}{}}
\@writefile{lof}{\contentsline {figure}{\numberline {21}{\ignorespaces Example of a data collection (adapted from~\cite  {baeza2013recuperaccao}).\relax }}{7}{figure.caption.5}}
\providecommand*\caption@xref[2]{\@setref\relax\@undefined{#1}}
\newlabel{fig:docs_example}{{\M@TitleReference {21}{Example of a data collection (adapted from~\cite  {baeza2013recuperaccao}).\relax }}{7}{Example of a data collection (adapted from~\cite {baeza2013recuperaccao}).\relax }{figure.caption.5}{}}
\@writefile{toc}{\contentsline {subsection}{\numberline {2.2.1}Bag of Words}{7}{subsection.2.2.1}}
\citation{baeza2013recuperaccao}
\@writefile{lot}{\contentsline {table}{\numberline {21}{\ignorespaces Feature vectors of documents in Figure~\ref  {fig:docs_example} obtained through \textit  {bag of words}. The numerical values correspond to word frequencies.\relax }}{8}{table.caption.6}}
\newlabel{table:bow_representation}{{\M@TitleReference {21}{Feature vectors of documents in Figure~\ref  {fig:docs_example} obtained through \textit  {bag of words}. The numerical values correspond to word frequencies.\relax }}{8}{Feature vectors of documents in Figure~\ref {fig:docs_example} obtained through \textit {bag of words}. The numerical values correspond to word frequencies.\relax }{table.caption.6}{}}
\@writefile{toc}{\contentsline {subsection}{\numberline {2.2.2}Term Frequency and Inverse Document Frequency }{8}{subsection.2.2.2}}
\@writefile{lot}{\contentsline {table}{\numberline {22}{\ignorespaces Feature vectors of documents in Figure~\ref  {fig:docs_example} obtained through \textit  {bag of words}. The numerical values correspond to TF-IDF weights.\relax }}{8}{table.caption.7}}
\newlabel{table:tfidf_representation}{{\M@TitleReference {22}{Feature vectors of documents in Figure~\ref  {fig:docs_example} obtained through \textit  {bag of words}. The numerical values correspond to TF-IDF weights.\relax }}{8}{Feature vectors of documents in Figure~\ref {fig:docs_example} obtained through \textit {bag of words}. The numerical values correspond to TF-IDF weights.\relax }{table.caption.7}{}}
\citation{fisicaro2018part}
\citation{mohri2012foundations}
\citation{shalev2014understanding}
\citation{mohri2012foundations}
\@writefile{toc}{\contentsline {subsection}{\numberline {2.2.3}Part of Speech Tagging}{9}{subsection.2.2.3}}
\newlabel{subsec:postag}{{\M@TitleReference {2.2.3}{Part of Speech Tagging}}{9}{Part of Speech Tagging}{subsection.2.2.3}{}}
\@writefile{lot}{\contentsline {table}{\numberline {23}{\ignorespaces Feature vectors of documents in Figure~\ref  {fig:docs_example} obtained through \textit  {bag of words}. The numerical values correspond to POSTAG frequency in the documents.\relax }}{9}{table.caption.8}}
\newlabel{table:postag_representation}{{\M@TitleReference {23}{Feature vectors of documents in Figure~\ref  {fig:docs_example} obtained through \textit  {bag of words}. The numerical values correspond to POSTAG frequency in the documents.\relax }}{9}{Feature vectors of documents in Figure~\ref {fig:docs_example} obtained through \textit {bag of words}. The numerical values correspond to POSTAG frequency in the documents.\relax }{table.caption.8}{}}
\citation{baeza2013recuperaccao}
\citation{liao2002use}
\@writefile{toc}{\contentsline {section}{\numberline {2.3}Machine Learning}{10}{section.2.3}}
\newlabel{sec:machine_learning}{{\M@TitleReference {2.3}{Machine Learning}}{10}{Machine Learning}{section.2.3}{}}
\@writefile{toc}{\contentsline {subsection}{\numberline {2.3.1}\textit  {k-Nearest Neighbor}}{10}{subsection.2.3.1}}
\citation{langley1992analysis}
\citation{lewis1998naive}
\@writefile{lof}{\contentsline {figure}{\numberline {22}{\ignorespaces kNN classification example.\relax }}{11}{figure.caption.9}}
\newlabel{fig:knn_example}{{\M@TitleReference {22}{kNN classification example.\relax }}{11}{kNN classification example.\relax }{figure.caption.9}{}}
\@writefile{toc}{\contentsline {subsection}{\numberline {2.3.2}\textit  {Gaussian Naive Bayes}}{11}{subsection.2.3.2}}
\citation{pang2002thumbs}
\citation{liaw2002classification}
\@writefile{toc}{\contentsline {subsection}{\numberline {2.3.3}\textit  {Support Vector Machine}}{12}{subsection.2.3.3}}
\citation{biau2008consistency}
\citation{chandrashekar2014survey}
\citation{bolon2011feature}
\citation{zainal2006feature}
\citation{mitchell1990machine,quinlan1986induction}
\@writefile{toc}{\contentsline {subsection}{\numberline {2.3.4}\textit  {Random Forest}}{13}{subsection.2.3.4}}
\@writefile{toc}{\contentsline {section}{\numberline {2.4}Feature Selection}{13}{section.2.4}}
\citation{rosso2009shakespeare}
\citation{lesne2014shannon}
\citation{mimno2009polylingual}
\newlabel{eq_ig}{{2.7}{14}{Feature Selection}{equation.2.4.7}{}}
\@writefile{toc}{\contentsline {section}{\numberline {2.5}Information Theory Quantifiers}{14}{section.2.5}}
\@writefile{toc}{\contentsline {subsection}{\numberline {2.5.1}Shannon Entropy}{14}{subsection.2.5.1}}
\citation{kohavi1995study}
\citation{witten2016data}
\citation{wong2015performance}
\citation{cawley2003efficient}
\@writefile{toc}{\contentsline {subsection}{\numberline {2.5.2}Jensen-Shannon Divergence}{15}{subsection.2.5.2}}
\@writefile{toc}{\contentsline {section}{\numberline {2.6}Model validation techniques}{15}{section.2.6}}
\@writefile{toc}{\contentsline {subsection}{\numberline {2.6.1}K-fold cross validation}{15}{subsection.2.6.1}}
\citation{sokolova2006beyond}
\citation{baeza2013recuperaccao}
\@writefile{lot}{\contentsline {table}{\numberline {24}{\ignorespaces Confusion matrix for binary classification.\relax }}{16}{table.caption.10}}
\newlabel{tab:confusion_matrix}{{\M@TitleReference {24}{Confusion matrix for binary classification.\relax }}{16}{Confusion matrix for binary classification.\relax }{table.caption.10}{}}
\@writefile{toc}{\contentsline {subsection}{\numberline {2.6.2}Leave-one-out cross validation}{16}{subsection.2.6.2}}
\@writefile{toc}{\contentsline {section}{\numberline {2.7}Effectiveness measures}{16}{section.2.7}}
\newlabel{sec:eval_metrics}{{\M@TitleReference {2.7}{Effectiveness measures}}{16}{Effectiveness measures}{section.2.7}{}}
\@writefile{toc}{\contentsline {subsection}{\numberline {2.7.1}Precision}{16}{subsection.2.7.1}}
\citation{baeza2013recuperaccao}
\@writefile{toc}{\contentsline {subsection}{\numberline {2.7.2}Recall}{17}{subsection.2.7.2}}
\@writefile{toc}{\contentsline {subsection}{\numberline {2.7.3}F-measure}{17}{subsection.2.7.3}}
\@writefile{toc}{\contentsline {section}{\numberline {2.8}Considera\IeC {\c c}\IeC {\~o}es Finais}{17}{section.2.8}}
\newlabel{sec:conclusion}{{\M@TitleReference {2.8}{Considera\IeC {\c c}\IeC {\~o}es Finais}}{17}{Considerações Finais}{section.2.8}{}}
\citation{lazer2018science}
\citation{tandoc2018defining}
\citation{bsdetector-kaggle}
\@writefile{lof}{\addvspace {10pt}}
\@writefile{lot}{\addvspace {10pt}}
\@writefile{toc}{\contentsline {chapter}{\chapternumberline {3}Related Work}{19}{chapter.3}}
\newlabel{related_works_section}{{\M@TitleReference {3}{Related Work}}{19}{Related Work}{chapter.3}{}}
\@writefile{toc}{\contentsline {section}{\numberline {3.1}Fake News Datasets}{19}{section.3.1}}
\newlabel{datasets_survey}{{\M@TitleReference {3.1}{Fake News Datasets}}{19}{Fake News Datasets}{section.3.1}{}}
\citation{}
\citation{perez@coling2018}
\citation{mitra2015credbank}
\citation{silverman2015lies}
\citation{wang2017liar}
\citation{}
\citation{shu2017exploiting}
\citation{allcott2017social}
\citation{wang2017liar}
\citation{allcott2017social}
\citation{shu2017exploiting}
\citation{shu2017fake}
\citation{kumar2018false}
\citation{hossein2018tensor}
\citation{bsdetector-kaggle}
\citation{rashkin2017truth}
\citation{horne2017just,potthast@arxiv2017,perez@coling2018}
\citation{perez@coling2018}
\citation{pennebaker2015liwc}
\@writefile{toc}{\contentsline {section}{\numberline {3.2}Fake News Detection}{22}{section.3.2}}
\citation{horne2017just}
\citation{potthast@arxiv2017}
\citation{horne2017just}
\citation{potthast@arxiv2017}
\citation{fairbanks2018credibility}
\citation{castillo2011information,shu2017exploiting,ruchansky2017csi}
\citation{castillo2011information}
\citation{shu2017exploiting}
\citation{ruchansky2017csi}
\citation{castillo2011information}
\citation{shu2017exploiting}
\citation{rashkin2017truth}
\citation{horne2017just}
\citation{potthast@arxiv2017}
\citation{ruchansky2017csi}
\citation{perez@coling2018}
\citation{hossein2018tensor}
\citation{fairbanks2018credibility}
\@writefile{toc}{\contentsline {section}{\numberline {3.3}Considera\IeC {\c c}\IeC {\~o}es Finais}{25}{section.3.3}}
\citation{horne2017just,perez@coling2018,bakir2018fake}
\@writefile{lof}{\addvspace {10pt}}
\@writefile{lot}{\addvspace {10pt}}
\@writefile{toc}{\contentsline {chapter}{\chapternumberline {4}Proposed Approach}{27}{chapter.4}}
\newlabel{chap:proposed_approach}{{\M@TitleReference {4}{Proposed Approach}}{27}{Proposed Approach}{chapter.4}{}}
\@writefile{toc}{\contentsline {section}{\numberline {4.1}Data Pre-processing}{27}{section.4.1}}
\@writefile{toc}{\contentsline {section}{\numberline {4.2}Feature Extraction}{27}{section.4.2}}
\@writefile{lot}{\contentsline {table}{\numberline {41}{\ignorespaces Linguistic-based features used to represent news articles.\relax }}{28}{table.caption.13}}
\newlabel{table:topic_agnostic_features}{{\M@TitleReference {41}{Linguistic-based features used to represent news articles.\relax }}{28}{Linguistic-based features used to represent news articles.\relax }{table.caption.13}{}}
\citation{rosso2009shakespeare}
\@writefile{toc}{\contentsline {section}{\numberline {4.3}Classification}{30}{section.4.3}}
\newlabel{classification_def}{{\M@TitleReference {4.3}{Classification}}{30}{Classification}{section.4.3}{}}
\@writefile{toc}{\contentsline {section}{\numberline {4.4}Considera\IeC {\c c}\IeC {\~o}es Finais}{30}{section.4.4}}
\citation{horne2017just,silverman2015lies}
\@writefile{lof}{\addvspace {10pt}}
\@writefile{lot}{\addvspace {10pt}}
\@writefile{toc}{\contentsline {chapter}{\chapternumberline {5}Experimentos e Resultados}{31}{chapter.5}}
\newlabel{chap:experimentos}{{\M@TitleReference {5}{Experimentos e Resultados}}{31}{Experimentos e Resultados}{chapter.5}{}}
\citation{perez@coling2018}
\citation{?}
\citation{silverman2015lies}
\citation{?}
\citation{perez@coling2018}
\@writefile{toc}{\contentsline {section}{\numberline {5.1}Materials and Methods}{32}{section.5.1}}
\newlabel{tab:dist_datasets}{{\M@TitleReference {51}{}}{32}{}{table.caption.14}{}}
\citation{bird2004nltk}
\citation{klein2003accurate}
\citation{pennebaker2015liwc}
\@writefile{toc}{\contentsline {section}{\numberline {5.2}Leave-one out: Celebrity and Fakenewsnet}{34}{section.5.2}}
\@writefile{toc}{\contentsline {section}{\numberline {5.3}Cross validation: Emergent and Fake.br}{37}{section.5.3}}
\@writefile{lot}{\contentsline {table}{\numberline {52}{\ignorespaces Stylometric features F1 scores with distinct combinations of n-grams representations and algorithms over the Celebrity dataset.\relax }}{40}{table.caption.15}}
\newlabel{tab:celebrity_stylometric}{{\M@TitleReference {52}{Stylometric features F1 scores with distinct combinations of n-grams representations and algorithms over the Celebrity dataset.\relax }}{40}{Stylometric features F1 scores with distinct combinations of n-grams representations and algorithms over the Celebrity dataset.\relax }{table.caption.15}{}}
\@writefile{lot}{\contentsline {table}{\numberline {53}{\ignorespaces Stylometric features F1 scores with distinct combinations of n-grams representations and algorithms over the Fakenewsnet dataset.\relax }}{40}{table.caption.16}}
\newlabel{tab:newsnet_stylometric}{{\M@TitleReference {53}{Stylometric features F1 scores with distinct combinations of n-grams representations and algorithms over the Fakenewsnet dataset.\relax }}{40}{Stylometric features F1 scores with distinct combinations of n-grams representations and algorithms over the Fakenewsnet dataset.\relax }{table.caption.16}{}}
\@writefile{lot}{\contentsline {table}{\numberline {54}{\ignorespaces Classification results of models trained over Celebrity dataset. PR corresponds to precision, RE to recall and F1 to F-measure.\relax }}{40}{table.caption.19}}
\newlabel{tab:celebrity_final_results}{{\M@TitleReference {54}{Classification results of models trained over Celebrity dataset. PR corresponds to precision, RE to recall and F1 to F-measure.\relax }}{40}{Classification results of models trained over Celebrity dataset. PR corresponds to precision, RE to recall and F1 to F-measure.\relax }{table.caption.19}{}}
\@writefile{lot}{\contentsline {table}{\numberline {55}{\ignorespaces Newsnet results\relax }}{41}{table.caption.20}}
\newlabel{tab:newsnet_final_results}{{\M@TitleReference {55}{Newsnet results\relax }}{41}{Newsnet results\relax }{table.caption.20}{}}
\@writefile{lot}{\contentsline {table}{\numberline {56}{\ignorespaces Silverman results\relax }}{41}{table.caption.22}}
\@writefile{lot}{\contentsline {table}{\numberline {57}{\ignorespaces Silverman vs baseline results\relax }}{41}{table.caption.23}}
\newlabel{tab:silverman_final_results}{{\M@TitleReference {57}{Silverman vs baseline results\relax }}{41}{Silverman vs baseline results\relax }{table.caption.23}{}}
\bibstyle{apalike}
\newlabel{fig:celebrity_headline_feature_selection}{{\M@TitleReference {51a}{Headline results.\relax }}{42}{Headline results.\relax }{figure.caption.17}{}}
\newlabel{sub@fig:celebrity_headline_feature_selection}{{\M@TitleReference {a}{Headline results.\relax }}{42}{Headline results.\relax }{figure.caption.17}{}}
\newlabel{fig:celebrity_content_feature_selection}{{\M@TitleReference {51b}{Content results.\relax }}{42}{Content results.\relax }{figure.caption.17}{}}
\newlabel{sub@fig:celebrity_content_feature_selection}{{\M@TitleReference {b}{Content results.\relax }}{42}{Content results.\relax }{figure.caption.17}{}}
\@writefile{lof}{\contentsline {figure}{\numberline {51}{\ignorespaces LiarDetector results over the Celebrity dataset considering different percentages of relevant features.\relax }}{42}{figure.caption.17}}
\newlabel{fig:celebrity_feature_selection}{{\M@TitleReference {51}{LiarDetector results over the Celebrity dataset considering different percentages of relevant features.\relax }}{42}{LiarDetector results over the Celebrity dataset considering different percentages of relevant features.\relax }{figure.caption.17}{}}
\newlabel{fig:newsnet_headline_feature_selection}{{\M@TitleReference {52a}{Headline results.\relax }}{42}{Headline results.\relax }{figure.caption.18}{}}
\newlabel{sub@fig:newsnet_headline_feature_selection}{{\M@TitleReference {a}{Headline results.\relax }}{42}{Headline results.\relax }{figure.caption.18}{}}
\newlabel{fig:newsnet_content_feature_selection}{{\M@TitleReference {52b}{Content results.\relax }}{42}{Content results.\relax }{figure.caption.18}{}}
\newlabel{sub@fig:newsnet_content_feature_selection}{{\M@TitleReference {b}{Content results.\relax }}{42}{Content results.\relax }{figure.caption.18}{}}
\@writefile{lof}{\contentsline {figure}{\numberline {52}{\ignorespaces LiarDetector results over the Fakenewsnet dataset considering different percentages of relevant features..\relax }}{42}{figure.caption.18}}
\newlabel{fig:newsnet_feature_selection}{{\M@TitleReference {52}{LiarDetector results over the Fakenewsnet dataset considering different percentages of relevant features..\relax }}{42}{LiarDetector results over the Fakenewsnet dataset considering different percentages of relevant features..\relax }{figure.caption.18}{}}
\@writefile{toc}{\contentsline {section}{\numberline {5.4}Considera\IeC {\c c}\IeC {\~o}es Finais}{42}{section.5.4}}
\newlabel{fig:emergent_headline_feature_selection}{{\M@TitleReference {53a}{Headline results.\relax }}{43}{Headline results.\relax }{figure.caption.21}{}}
\newlabel{sub@fig:emergent_headline_feature_selection}{{\M@TitleReference {a}{Headline results.\relax }}{43}{Headline results.\relax }{figure.caption.21}{}}
\newlabel{fig:emergent_content_feature_selection}{{\M@TitleReference {53b}{Content results.\relax }}{43}{Content results.\relax }{figure.caption.21}{}}
\newlabel{sub@fig:emergent_content_feature_selection}{{\M@TitleReference {b}{Content results.\relax }}{43}{Content results.\relax }{figure.caption.21}{}}
\@writefile{lof}{\contentsline {figure}{\numberline {53}{\ignorespaces LiarDetector results over the Emergent dataset considering different percentages of relevant features.\relax }}{43}{figure.caption.21}}
\newlabel{fig:emergent_feature_selection}{{\M@TitleReference {53}{LiarDetector results over the Emergent dataset considering different percentages of relevant features.\relax }}{43}{LiarDetector results over the Emergent dataset considering different percentages of relevant features.\relax }{figure.caption.21}{}}
\newlabel{fig:celebrity_headline_time_train}{{\M@TitleReference {54a}{Celebrity: training time for headline.\relax }}{43}{Celebrity: training time for headline.\relax }{figure.caption.24}{}}
\newlabel{sub@fig:celebrity_headline_time_train}{{\M@TitleReference {a}{Celebrity: training time for headline.\relax }}{43}{Celebrity: training time for headline.\relax }{figure.caption.24}{}}
\newlabel{fig:celebrity_headline_time_test}{{\M@TitleReference {54b}{Celebrity: testing time for headline.\relax }}{43}{Celebrity: testing time for headline.\relax }{figure.caption.24}{}}
\newlabel{sub@fig:celebrity_headline_time_test}{{\M@TitleReference {b}{Celebrity: testing time for headline.\relax }}{43}{Celebrity: testing time for headline.\relax }{figure.caption.24}{}}
\newlabel{fig:celebrity_content_time_train}{{\M@TitleReference {54c}{Celebrity: training time for content.\relax }}{43}{Celebrity: training time for content.\relax }{figure.caption.24}{}}
\newlabel{sub@fig:celebrity_content_time_train}{{\M@TitleReference {c}{Celebrity: training time for content.\relax }}{43}{Celebrity: training time for content.\relax }{figure.caption.24}{}}
\newlabel{fig:celebrity_content_time_test}{{\M@TitleReference {54d}{Celebrity: testing time for content.\relax }}{43}{Celebrity: testing time for content.\relax }{figure.caption.24}{}}
\newlabel{sub@fig:celebrity_content_time_test}{{\M@TitleReference {d}{Celebrity: testing time for content.\relax }}{43}{Celebrity: testing time for content.\relax }{figure.caption.24}{}}
\newlabel{fig:newsnet_headline_time_train}{{\M@TitleReference {54e}{Fakenewsnet: training time for headline.\relax }}{43}{Fakenewsnet: training time for headline.\relax }{figure.caption.24}{}}
\newlabel{sub@fig:newsnet_headline_time_train}{{\M@TitleReference {e}{Fakenewsnet: training time for headline.\relax }}{43}{Fakenewsnet: training time for headline.\relax }{figure.caption.24}{}}
\newlabel{fig:newsnet_headline_time_test}{{\M@TitleReference {54f}{Fakenewsnet: testing time for headline.\relax }}{43}{Fakenewsnet: testing time for headline.\relax }{figure.caption.24}{}}
\newlabel{sub@fig:newsnet_headline_time_test}{{\M@TitleReference {f}{Fakenewsnet: testing time for headline.\relax }}{43}{Fakenewsnet: testing time for headline.\relax }{figure.caption.24}{}}
\newlabel{fig:newsnet_content_time_train}{{\M@TitleReference {54g}{Fakenewsnet: training time for headline.\relax }}{43}{Fakenewsnet: training time for headline.\relax }{figure.caption.24}{}}
\newlabel{sub@fig:newsnet_content_time_train}{{\M@TitleReference {g}{Fakenewsnet: training time for headline.\relax }}{43}{Fakenewsnet: training time for headline.\relax }{figure.caption.24}{}}
\newlabel{fig:newsnet_content_time_test}{{\M@TitleReference {54h}{Fakenewsnet: testing time for content.\relax }}{43}{Fakenewsnet: testing time for content.\relax }{figure.caption.24}{}}
\newlabel{sub@fig:newsnet_content_time_test}{{\M@TitleReference {h}{Fakenewsnet: testing time for content.\relax }}{43}{Fakenewsnet: testing time for content.\relax }{figure.caption.24}{}}
\@writefile{lof}{\contentsline {figure}{\numberline {54}{\ignorespaces Classification time in seconds (logarithm scale) of our approach vs baseline.\relax }}{43}{figure.caption.24}}
\newlabel{fig:loocv_time_execution}{{\M@TitleReference {54}{Classification time in seconds (logarithm scale) of our approach vs baseline.\relax }}{43}{Classification time in seconds (logarithm scale) of our approach vs baseline.\relax }{figure.caption.24}{}}
\bibstyle{ppgccufmg}
\bibdata{bibfile}
\memsetcounter{lastsheet}{62}
\memsetcounter{lastpage}{44}
